EESchema Schematic File Version 2
LIBS:entrenador-rescue
LIBS:24c1024
LIBS:74xgxx
LIBS:74xx
LIBS:74xx-us
LIBS:ac-dc
LIBS:actel
LIBS:actel_fpga
LIBS:adc-dac
LIBS:akm_digitalaudio
LIBS:allegro
LIBS:allegro_motordrivers
LIBS:allegro_sensors
LIBS:Altera
LIBS:analog_devices
LIBS:analogdevices_adcdac
LIBS:analogdevices_digitalpot
LIBS:analogdevices_instropamp
LIBS:analogdevices_interface
LIBS:analogdevices_rf
LIBS:analogdevices_sensors
LIBS:analogdevices_switchregul
LIBS:analogdevices_voltageref
LIBS:analog_switches
LIBS:Atmega8-16PI
LIBS:atmel
LIBS:atmel_armmcu
LIBS:atmel_avr8mcu
LIBS:atmel_mcs51mcu
LIBS:atmel_memory
LIBS:atmel_qtouch
LIBS:atmel_xmegamcu
LIBS:audio
LIBS:azoteq_touch
LIBS:BATTERY
LIBS:battery_management
LIBS:bbd
LIBS:bosch
LIBS:brooktre
LIBS:cap-master
LIBS:_cenditel
LIBS:cirrus_digitalaudio
LIBS:cmos4000
LIBS:cmos_ieee
LIBS:conn
LIBS:_conn_rf
LIBS:contrib
LIBS:_crydom
LIBS:_cui
LIBS:cypress
LIBS:cypress_memory
LIBS:cypress_psocmcu
LIBS:cypress_touch
LIBS:DB-1
LIBS:dc-dc
LIBS:device
LIBS:digital-audio
LIBS:diode
LIBS:_diodes
LIBS:dips-s
LIBS:display
LIBS:double_zenner
LIBS:ds1307
LIBS:dsp
LIBS:elec-unifil
LIBS:ESD_Protection
LIBS:_fairchild
LIBS:fairchild_acdc
LIBS:fairchild_opto
LIBS:fairchild_regul
LIBS:fairchild_switches
LIBS:_fci
LIBS:finder_relays
LIBS:freescale_kl0mcu
LIBS:ftdi
LIBS:ftdi_interfaces
LIBS:gennum
LIBS:graphic
LIBS:graphic_symbols
LIBS:hc11
LIBS:hitachi_memory
LIBS:icebase_interface
LIBS:_id-innovations
LIBS:_idt
LIBS:infineon
LIBS:infineon_xmcmcu
LIBS:intel
LIBS:intel_i386mpu
LIBS:intel_interface
LIBS:intel_mcs48mcu
LIBS:interface
LIBS:intersil
LIBS:intersil_voltageref
LIBS:ir
LIBS:ir_drivers
LIBS:ir_ips
LIBS:kingbright_leddisplay
LIBS:l297
LIBS:l298
LIBS:Lattice
LIBS:lattice_pld
LIBS:led_array_4
LIBS:led_array_8
LIBS:leds
LIBS:LEM
LIBS:linear
LIBS:lineartech_acdc
LIBS:lineartech_adcdac
LIBS:lineartech_drivers
LIBS:lineartech_interface
LIBS:lineartech_pfcctrl
LIBS:lineartech_pmic
LIBS:lineartech_regul
LIBS:lineartech_switchregul
LIBS:lineartech_voltageref
LIBS:liteon_opto
LIBS:logic_programmable
LIBS:logo
LIBS:logo_jc
LIBS:_lumex
LIBS:macroblock_leddrivers
LIBS:maxim
LIBS:_maxim
LIBS:maxim_adcdac
LIBS:maxim_batmgmt
LIBS:maxim_interface
LIBS:maxim_regul
LIBS:maxim_rtc
LIBS:maxim_switchregul
LIBS:maxim_voltageref
LIBS:mcp2200
LIBS:mcp4131
LIBS:mechanical
LIBS:memory
LIBS:microchip
LIBS:microchip1
LIBS:_microchip
LIBS:microchip_adcdac
LIBS:microchip_batmgmt
LIBS:microchip_dspic33dsc
LIBS:microchip_ethernetif
LIBS:_microchip_icsp
LIBS:microchip_interface
LIBS:microchip_memory
LIBS:microchip_pic10mcu
LIBS:microchip_pic12mcu
LIBS:microchip_pic16mcu
LIBS:microchip_pic18mcu
LIBS:microchip_pic24mcu
LIBS:microchip_pic32mcu
LIBS:microchip-pic18fxx5x
LIBS:microchip_pwrmgmt
LIBS:microchip_regul
LIBS:microchip_sensors
LIBS:microchip_switchregul
LIBS:microchip_voltageref
LIBS:microcontrollers
LIBS:micron_memory
LIBS:micro-pic18xxx
LIBS:misc_acdc
LIBS:misc_adcdac
LIBS:misc_audio
LIBS:misc_devices
LIBS:misc_diodes
LIBS:misc_displays
LIBS:misc_interface
LIBS:misc_memory
LIBS:misc_opto
LIBS:misc_pwrmgmt
LIBS:misc_regul
LIBS:misc_rfcom
LIBS:misc_sensors
LIBS:misc_switchregul
LIBS:misc_transf
LIBS:misc_transistors
LIBS:misc_valves
LIBS:modules
LIBS:moto
LIBS:motor_drivers
LIBS:motorola
LIBS:motors
LIBS:msp430
LIBS:_national
LIBS:ndy24xx
LIBS:nordicsemi
LIBS:nordicsemi_rfcom
LIBS:nxp
LIBS:nxp_adcdac
LIBS:nxp_armmcu
LIBS:onsemi
LIBS:_onsemi
LIBS:onsemi_acdc
LIBS:onsemi_motordrivers
LIBS:onsemi_regul
LIBS:onsemi_switchregul
LIBS:opto
LIBS:Oscillators
LIBS:philips
LIBS:pic16f1824
LIBS:pic16f1829
LIBS:power
LIBS:powerint
LIBS:powerint_acdc
LIBS:Power_Management
LIBS:pspice
LIBS:ramtron_memory
LIBS:references
LIBS:regul
LIBS:relays
LIBS:relpol_relays
LIBS:resonator
LIBS:rfcom
LIBS:RFSolutions
LIBS:_rohm
LIBS:rs-24xx
LIBS:sanken_motordrivers
LIBS:sanyo_audio
LIBS:sensors
LIBS:sharp_opto
LIBS:sht15_mod
LIBS:silabs
LIBS:_silabs
LIBS:silabs_rfcom
LIBS:siliconi
LIBS:sma
LIBS:SparkFun
LIBS:special
LIBS:_special
LIBS:sst_memory
LIBS:_st
LIBS:st_acdc
LIBS:st_audio
LIBS:_std
LIBS:stepper drivers
LIBS:stm8
LIBS:stm32
LIBS:st-microelectronics
LIBS:st_motordrivers
LIBS:_st_poe
LIBS:st_regul
LIBS:_st_rf
LIBS:st_sensors
LIBS:st_stm8mcu
LIBS:st_stm32mcu
LIBS:st_switchregul
LIBS:sumzi_motordrivers
LIBS:supertex
LIBS:supertex_leddrivers
LIBS:supertex_pwrmgmt
LIBS:switches
LIBS:sw_push_4
LIBS:Symbols_ICs-Diskrete_RevA
LIBS:SymbolsSimilarEN60617+oldDIN617
LIBS:Symbols_Transformer-Discrete
LIBS:temt6000
LIBS:texas
LIBS:ti_adcdac
LIBS:ti_armmcu
LIBS:ti_audio
LIBS:ti_batmgmt
LIBS:ti_digitalaudio
LIBS:ti_instropamp
LIBS:ti_interface
LIBS:ti_linear
LIBS:ti_littlelogic74g
LIBS:ti_logic74
LIBS:ti_memory
LIBS:ti_motordrivers
LIBS:ti_msp430mcu
LIBS:ti_opamp
LIBS:ti_pmic
LIBS:ti_regul
LIBS:ti_rfcom
LIBS:ti_sensors
LIBS:ti_switchregul
LIBS:ti_tms470mcu
LIBS:ti_voltageref
LIBS:tlp3542
LIBS:toshiba_opto
LIBS:toshiba_transistors
LIBS:_totalphase
LIBS:transf
LIBS:transistors
LIBS:triac_thyristor
LIBS:ttl_ieee
LIBS:_unknown
LIBS:usb112a
LIBS:valves
LIBS:video
LIBS:vishay_opto
LIBS:w_analog
LIBS:wiznet
LIBS:Worldsemi
LIBS:worldsemi_leddrivers
LIBS:Xicor
LIBS:xilinx
LIBS:xxx
LIBS:zetex
LIBS:zettler_relays
LIBS:Zilog
LIBS:zilog_z80mpu
LIBS:+1.8V
LIBS:+3.3V
LIBS:+5V
LIBS:+9V
LIBS:25AA02EXXX-XOT
LIBS:74LVC8T245
LIBS:4021
LIBS:7408
LIBS:74125
LIBS:74138
LIBS:74148
LIBS:74151
LIBS:74157
LIBS:74541
LIBS:ANT
LIBS:AP6502
LIBS:AUDIO-JACK-3
LIBS:AUDIO-JACK-6
LIBS:BELFUSE-08B0-1X1T-06-F
LIBS:C
LIBS:CP
LIBS:CRYSTAL
LIBS:CRYSTAL-14
LIBS:CVAR
LIBS:DIODE
LIBS:DIODES-AP3211
LIBS:DIODESCH
LIBS:DIODEZENER
LIBS:DMMT5401
LIBS:EDISON-BULB-E10
LIBS:EDISON-SOCKET-E10
LIBS:ENC28J60
LIBS:FTDI-PLUG
LIBS:GNDPWR
LIBS:~GNDPWR
LIBS:INDUCTOR
LIBS:INTEL-EDISON-COMPUTE-MODULE
LIBS:IS31AP4066D
LIBS:JTAG
LIBS:JTAG10
LIBS:LATTICE-LC4256
LIBS:LED
LIBS:LED-BI
LIBS:LED-BI-COMMON-CATHODE
LIBS:LM324
LIBS:LM1875
LIBS:MAX3221
LIBS:MC33926
LIBS:MC34063A
LIBS:MCP49X1
LIBS:MCP3204
LIBS:MECH
LIBS:MIC2039
LIBS:MIC2288
LIBS:MICROSD-AMPHENOL-114-00841-68
LIBS:MOSFET-N
LIBS:MOSFET-N-123
LIBS:MOSFET-N-134
LIBS:MOSFET-P
LIBS:NPN
LIBS:nRF8001
LIBS:NXPUDA1334ATS
LIBS:OPAMP-DUAL
LIBS:P01
LIBS:P02
LIBS:P03
LIBS:P05
LIBS:P06
LIBS:P06-MOTOR
LIBS:P08
LIBS:P10
LIBS:P22
LIBS:P24
LIBS:PHOTO_TRANSISTOR
LIBS:PIEZO
LIBS:PNP
LIBS:POLYFUSE
LIBS:POT
LIBS:PWR_FLAG
LIBS:QRE1113
LIBS:R
LIBS:RASPBERRYPI
LIBS:RASPBERRYPI2
LIBS:RBUS8
LIBS:RN4020
LIBS:ROBOT-P10-IO
LIBS:RS-232-DB-9-DTE
LIBS:SEN-SHT3x-DIS
LIBS:SERVO
LIBS:SI4737-C40-GM
LIBS:SI4737-GU
LIBS:SKYWORKS-AAT1217-3.3
LIBS:SPDT
LIBS:SPST
LIBS:SPST-4PIN
LIBS:SST25VF032B-S2A
LIBS:SST26VF032B
LIBS:ST-LIS3MDL
LIBS:STM32-32PIN
LIBS:STM32-48PIN
LIBS:STM32-64PIN
LIBS:STM32SWDUART
LIBS:ST-SWD
LIBS:ST-TDA7266
LIBS:SWD
LIBS:TCS3472
LIBS:TI-ADS7866
LIBS:TICC3000
LIBS:TIREF30XX
LIBS:TP
LIBS:TS5A623157
LIBS:TSV631
LIBS:TVS-DIODE
LIBS:TXB0108-PW
LIBS:USBAB
LIBS:Vcc
LIBS:Vdd
LIBS:VIN
LIBS:VREG
LIBS:VREG_VOUTCENTER
LIBS:BQ24450
LIBS:BTN_SPST
LIBS:~CONN_1
LIBS:CONN_4
LIBS:CONN_4X1
LIBS:CONN_14X1
LIBS:Csmall
LIBS:ESD_SUPPRESSOR
LIBS:FERRITEBEAD
LIBS:FT232H
LIBS:FT312D
LIBS:FULLWAVERECTIFIER
LIBS:FUSE
LIBS:GND2
LIBS:INDUCTOR_SMALL
LIBS:JUMPER_2X1
LIBS:JUMPER_3X1
LIBS:LM317
LIBS:LM358
LIBS:MC34063
LIBS:MRF24WB0MX
LIBS:P20
LIBS:POWER_JACK
LIBS:Rsmall
LIBS:SDCARD
LIBS:STM32F102XX
LIBS:USB2
LIBS:~USB_2
LIBS:VBUS
LIBS:VCCIO
LIBS:VCORE
LIBS:VPHY
LIBS:VPLL
LIBS:VREG_GNDCENTER
LIBS:VREGIN
LIBS:VREG_VINCENTER
LIBS:4x4_keypad
LIBS:at_custom
LIBS:Symbols_DCDC-ACDC-Converter_RevC_20Jul2012
LIBS:Symbols_EN60617_13Mar2013
LIBS:Symbols_EN60617-10_HF-Radio_DRAFT_12Sep2013
LIBS:Symbols_ICs-Diskrete_RevD10
LIBS:Symbols_ICs-Opto_RevB_16Sep2013
LIBS:Symbols_Microcontroller_Philips-NXP_RevA_06Oct2013
LIBS:SymbolsSimilarEN60617+oldDIN617-RevE8
LIBS:Symbols_Socket-DIN41612_RevA
LIBS:Symbols_Transformer-Diskrete_RevA
LIBS:entrenador-cache
EELAYER 25 0
EELAYER END
$Descr A3 16535 11693
encoding utf-8
Sheet 1 1
Title "Entrenador Ethernet PIC18F97J60"
Date "2017-09-11"
Rev ""
Comp "Fundación CENDITEL"
Comment1 "Ing. Josemiguel Canelones"
Comment2 ""
Comment3 ""
Comment4 ""
$EndDescr
$Comp
L PIC18F97J60-I/PT-RESCUE-entrenador U3
U 1 1 59B684D0
P 7300 5400
F 0 "U3" H 5950 8200 50  0000 C CNN
F 1 "PIC18F97J60-I/PT" H 8400 2600 50  0000 C CNN
F 2 "Housings_QFP:TQFP-100_12x12mm_Pitch0.4mm" H 7300 5400 50  0001 C CIN
F 3 "" H 6650 4900 50  0001 C CNN
	1    7300 5400
	1    0    0    -1  
$EndComp
$Comp
L LOGO_CENDITEL #G1
U 1 1 59B6852A
P 15400 10200
F 0 "#G1" H 15380 9930 60  0001 C CNN
F 1 "LOGO_CENDITEL" H 15400 10450 60  0001 C CNN
F 2 "" H 15400 10200 60  0001 C CNN
F 3 "" H 15400 10200 60  0001 C CNN
	1    15400 10200
	1    0    0    -1  
$EndComp
$Comp
L LCD_16X2 LCD1
U 1 1 59B68540
P 13550 1450
F 0 "LCD1" H 12425 1850 60  0000 C CNN
F 1 "LCD_16X2" H 14550 1850 60  0000 C CNN
F 2 "Displays:WC1602A" H 13550 1450 60  0001 C CNN
F 3 "" H 13550 1450 60  0001 C CNN
	1    13550 1450
	1    0    0    -1  
$EndComp
$Comp
L LED D1
U 1 1 59B686B7
P 12350 3300
F 0 "D1" H 12350 3400 50  0000 C CNN
F 1 "LED" H 12350 3200 50  0000 C CNN
F 2 "LEDs:LED-5MM" H 12350 3300 50  0001 C CNN
F 3 "" H 12350 3300 50  0001 C CNN
	1    12350 3300
	0    -1   -1   0   
$EndComp
$Comp
L R R8
U 1 1 59B68752
P 12350 3750
F 0 "R8" V 12430 3750 50  0000 C CNN
F 1 "500" V 12350 3750 50  0000 C CNN
F 2 "Discret:CP4" V 12280 3750 50  0001 C CNN
F 3 "" H 12350 3750 50  0001 C CNN
	1    12350 3750
	1    0    0    -1  
$EndComp
$Comp
L LED D2
U 1 1 59B68DE3
P 12650 3300
F 0 "D2" H 12650 3400 50  0000 C CNN
F 1 "LED" H 12650 3200 50  0000 C CNN
F 2 "LEDs:LED-5MM" H 12650 3300 50  0001 C CNN
F 3 "" H 12650 3300 50  0001 C CNN
	1    12650 3300
	0    -1   -1   0   
$EndComp
$Comp
L R R9
U 1 1 59B68DE9
P 12650 3750
F 0 "R9" V 12730 3750 50  0000 C CNN
F 1 "500" V 12650 3750 50  0000 C CNN
F 2 "Discret:CP4" V 12580 3750 50  0001 C CNN
F 3 "" H 12650 3750 50  0001 C CNN
	1    12650 3750
	1    0    0    -1  
$EndComp
$Comp
L LED D3
U 1 1 59B68E70
P 12950 3300
F 0 "D3" H 12950 3400 50  0000 C CNN
F 1 "LED" H 12950 3200 50  0000 C CNN
F 2 "LEDs:LED-5MM" H 12950 3300 50  0001 C CNN
F 3 "" H 12950 3300 50  0001 C CNN
	1    12950 3300
	0    -1   -1   0   
$EndComp
$Comp
L R R10
U 1 1 59B68E76
P 12950 3750
F 0 "R10" V 13030 3750 50  0000 C CNN
F 1 "500" V 12950 3750 50  0000 C CNN
F 2 "Discret:CP4" V 12880 3750 50  0001 C CNN
F 3 "" H 12950 3750 50  0001 C CNN
	1    12950 3750
	1    0    0    -1  
$EndComp
$Comp
L LED D4
U 1 1 59B68E7D
P 13250 3300
F 0 "D4" H 13250 3400 50  0000 C CNN
F 1 "LED" H 13250 3200 50  0000 C CNN
F 2 "LEDs:LED-5MM" H 13250 3300 50  0001 C CNN
F 3 "" H 13250 3300 50  0001 C CNN
	1    13250 3300
	0    -1   -1   0   
$EndComp
$Comp
L R R11
U 1 1 59B68E83
P 13250 3750
F 0 "R11" V 13330 3750 50  0000 C CNN
F 1 "500" V 13250 3750 50  0000 C CNN
F 2 "Discret:CP4" V 13180 3750 50  0001 C CNN
F 3 "" H 13250 3750 50  0001 C CNN
	1    13250 3750
	1    0    0    -1  
$EndComp
$Comp
L LED D5
U 1 1 59B69114
P 13550 3300
F 0 "D5" H 13550 3400 50  0000 C CNN
F 1 "LED" H 13550 3200 50  0000 C CNN
F 2 "LEDs:LED-5MM" H 13550 3300 50  0001 C CNN
F 3 "" H 13550 3300 50  0001 C CNN
	1    13550 3300
	0    -1   -1   0   
$EndComp
$Comp
L R R14
U 1 1 59B6911A
P 13550 3750
F 0 "R14" V 13630 3750 50  0000 C CNN
F 1 "500" V 13550 3750 50  0000 C CNN
F 2 "Discret:CP4" V 13480 3750 50  0001 C CNN
F 3 "" H 13550 3750 50  0001 C CNN
	1    13550 3750
	1    0    0    -1  
$EndComp
$Comp
L LED D6
U 1 1 59B69121
P 13850 3300
F 0 "D6" H 13850 3400 50  0000 C CNN
F 1 "LED" H 13850 3200 50  0000 C CNN
F 2 "LEDs:LED-5MM" H 13850 3300 50  0001 C CNN
F 3 "" H 13850 3300 50  0001 C CNN
	1    13850 3300
	0    -1   -1   0   
$EndComp
$Comp
L R R15
U 1 1 59B69127
P 13850 3750
F 0 "R15" V 13930 3750 50  0000 C CNN
F 1 "500" V 13850 3750 50  0000 C CNN
F 2 "Discret:CP4" V 13780 3750 50  0001 C CNN
F 3 "" H 13850 3750 50  0001 C CNN
	1    13850 3750
	1    0    0    -1  
$EndComp
$Comp
L LED D7
U 1 1 59B6912E
P 14150 3300
F 0 "D7" H 14150 3400 50  0000 C CNN
F 1 "LED" H 14150 3200 50  0000 C CNN
F 2 "LEDs:LED-5MM" H 14150 3300 50  0001 C CNN
F 3 "" H 14150 3300 50  0001 C CNN
	1    14150 3300
	0    -1   -1   0   
$EndComp
$Comp
L R R16
U 1 1 59B69134
P 14150 3750
F 0 "R16" V 14230 3750 50  0000 C CNN
F 1 "500" V 14150 3750 50  0000 C CNN
F 2 "Discret:CP4" V 14080 3750 50  0001 C CNN
F 3 "" H 14150 3750 50  0001 C CNN
	1    14150 3750
	1    0    0    -1  
$EndComp
$Comp
L LED D8
U 1 1 59B6913B
P 14450 3300
F 0 "D8" H 14450 3400 50  0000 C CNN
F 1 "LED" H 14450 3200 50  0000 C CNN
F 2 "LEDs:LED-5MM" H 14450 3300 50  0001 C CNN
F 3 "" H 14450 3300 50  0001 C CNN
	1    14450 3300
	0    -1   -1   0   
$EndComp
$Comp
L R R19
U 1 1 59B69141
P 14450 3750
F 0 "R19" V 14530 3750 50  0000 C CNN
F 1 "500" V 14450 3750 50  0000 C CNN
F 2 "Discret:CP4" V 14380 3750 50  0001 C CNN
F 3 "" H 14450 3750 50  0001 C CNN
	1    14450 3750
	1    0    0    -1  
$EndComp
$Comp
L LED D9
U 1 1 59B691B0
P 14800 3300
F 0 "D9" H 14800 3400 50  0000 C CNN
F 1 "LED-ON" H 14800 3200 50  0000 L CNN
F 2 "LEDs:LED-5MM" H 14800 3300 50  0001 C CNN
F 3 "" H 14800 3300 50  0001 C CNN
	1    14800 3300
	0    -1   -1   0   
$EndComp
$Comp
L R R21
U 1 1 59B691B6
P 14800 3750
F 0 "R21" V 14880 3750 50  0000 C CNN
F 1 "1k" V 14800 3750 50  0000 C CNN
F 2 "Discret:CP4" V 14730 3750 50  0001 C CNN
F 3 "" H 14800 3750 50  0001 C CNN
	1    14800 3750
	1    0    0    -1  
$EndComp
$Comp
L GND #PWR01
U 1 1 59B692D6
P 13400 4100
F 0 "#PWR01" H 13400 3850 50  0001 C CNN
F 1 "GND" H 13400 3950 50  0000 C CNN
F 2 "" H 13400 4100 50  0001 C CNN
F 3 "" H 13400 4100 50  0001 C CNN
	1    13400 4100
	1    0    0    -1  
$EndComp
Wire Wire Line
	12350 3450 12350 3600
Wire Wire Line
	12650 3450 12650 3600
Wire Wire Line
	12950 3450 12950 3600
Wire Wire Line
	13250 3450 13250 3600
Wire Wire Line
	13550 3450 13550 3600
Wire Wire Line
	13850 3450 13850 3600
Wire Wire Line
	14150 3450 14150 3600
Wire Wire Line
	14450 3450 14450 3600
Wire Wire Line
	14800 3450 14800 3600
Wire Wire Line
	14800 4100 14800 3900
Wire Wire Line
	12350 4100 14800 4100
Wire Wire Line
	12350 4100 12350 3900
Wire Wire Line
	12650 3900 12650 4100
Connection ~ 12650 4100
Wire Wire Line
	12950 3900 12950 4100
Connection ~ 12950 4100
Wire Wire Line
	13250 3900 13250 4100
Wire Wire Line
	13250 4100 13200 4100
Connection ~ 13200 4100
Connection ~ 13400 4100
Wire Wire Line
	13550 3900 13550 4100
Connection ~ 13550 4100
Wire Wire Line
	13850 3900 13850 4100
Connection ~ 13850 4100
Wire Wire Line
	14150 3900 14150 4100
Connection ~ 14150 4100
Wire Wire Line
	14450 3900 14450 4100
Connection ~ 14450 4100
Entry Wire Line
	14350 2800 14450 2900
Entry Wire Line
	13750 2800 13850 2900
Entry Wire Line
	13450 2800 13550 2900
Entry Wire Line
	13150 2800 13250 2900
Entry Wire Line
	12850 2800 12950 2900
Entry Wire Line
	12550 2800 12650 2900
Entry Wire Line
	12250 2800 12350 2900
Entry Wire Line
	14050 2800 14150 2900
Entry Wire Line
	14350 2700 14450 2800
Entry Wire Line
	14150 2700 14250 2800
Entry Wire Line
	14050 2700 14150 2800
Entry Wire Line
	13950 2700 14050 2800
Entry Wire Line
	13850 2700 13950 2800
Entry Wire Line
	13250 2700 13350 2800
Entry Wire Line
	13150 2700 13250 2800
Entry Wire Line
	13050 2700 13150 2800
$Comp
L GND #PWR02
U 1 1 59B6999F
P 13600 2200
F 0 "#PWR02" H 13600 1950 50  0001 C CNN
F 1 "GND" H 13600 2050 50  0000 C CNN
F 2 "" H 13600 2200 50  0001 C CNN
F 3 "" H 13600 2200 50  0001 C CNN
	1    13600 2200
	1    0    0    -1  
$EndComp
Wire Wire Line
	13550 2050 13550 2150
Wire Wire Line
	13650 2150 13650 2050
Wire Wire Line
	13450 2150 13750 2150
Wire Wire Line
	13450 2050 13450 2150
Connection ~ 13550 2150
Wire Wire Line
	13750 2150 13750 2050
Connection ~ 13650 2150
Wire Wire Line
	13600 2150 13600 2200
Connection ~ 13600 2150
Wire Wire Line
	13850 2050 13850 2700
Wire Wire Line
	13950 2050 13950 2700
Wire Wire Line
	14050 2050 14050 2700
Wire Wire Line
	14150 2050 14150 2700
$Comp
L GND #PWR03
U 1 1 59B69CD5
P 15150 2650
F 0 "#PWR03" H 15150 2400 50  0001 C CNN
F 1 "GND" H 15150 2500 50  0000 C CNN
F 2 "" H 15150 2650 50  0001 C CNN
F 3 "" H 15150 2650 50  0001 C CNN
	1    15150 2650
	1    0    0    -1  
$EndComp
Wire Wire Line
	14450 2050 14450 2100
$Comp
L GND #PWR04
U 1 1 59B69D61
P 12450 2100
F 0 "#PWR04" H 12450 1850 50  0001 C CNN
F 1 "GND" H 12450 1950 50  0000 C CNN
F 2 "" H 12450 2100 50  0001 C CNN
F 3 "" H 12450 2100 50  0001 C CNN
	1    12450 2100
	-1   0    0    1   
$EndComp
Wire Wire Line
	12750 2050 12750 2400
Wire Wire Line
	12650 2150 12650 2050
Wire Wire Line
	13250 2050 13250 2700
Wire Wire Line
	13150 2050 13150 2700
Wire Wire Line
	13050 2050 13050 2700
Wire Wire Line
	14450 2900 14450 3150
Wire Wire Line
	14150 2900 14150 3150
Wire Wire Line
	13850 2900 13850 3150
Wire Wire Line
	13550 2900 13550 3150
Wire Wire Line
	13250 2900 13250 3150
Wire Wire Line
	12950 2900 12950 3150
Wire Wire Line
	12650 2900 12650 3150
$Comp
L POT RV1
U 1 1 59B6A4A8
P 12450 2400
F 0 "RV1" V 12275 2400 50  0000 C CNN
F 1 "10k" V 12350 2400 50  0000 C CNN
F 2 "Potentiometers:Potentiometer_Bourns_3006Y_Angular_ScrewFront" H 12450 2400 50  0001 C CNN
F 3 "" H 12450 2400 50  0001 C CNN
	1    12450 2400
	0    1    1    0   
$EndComp
Wire Wire Line
	12250 2400 12300 2400
Wire Wire Line
	12450 2100 12450 2150
Wire Wire Line
	12250 2150 12650 2150
Wire Wire Line
	12250 2150 12250 2400
Connection ~ 12450 2150
Wire Wire Line
	12650 2400 12650 2250
Wire Wire Line
	12650 2250 12750 2250
Connection ~ 12750 2250
Wire Wire Line
	12650 2400 12600 2400
Wire Wire Line
	12450 2550 12450 2650
Wire Wire Line
	12450 2650 12900 2650
Wire Wire Line
	12900 2650 12900 2250
Wire Wire Line
	12900 2250 12850 2250
Wire Wire Line
	12850 2250 12850 2050
Text Label 12350 3150 1    60   ~ 0
led-0
Text Label 12650 3150 1    60   ~ 0
led-1
Text Label 12950 3150 1    60   ~ 0
led-2
Text Label 13250 3150 1    60   ~ 0
led-3
Text Label 13550 3150 1    60   ~ 0
led-4
Text Label 13850 3150 1    60   ~ 0
led-5
Text Label 14150 3150 1    60   ~ 0
led-6
Text Label 14450 3150 1    60   ~ 0
led-7
$Comp
L 7805-RESCUE-entrenador U1
U 1 1 59B6B1C6
P 2750 9950
F 0 "U1" H 2550 10150 40  0000 C CNN
F 1 "7805" H 2900 10150 40  0000 C CNN
F 2 "TO_SOT_Packages_THT:TO-220_Neutral123_Horizontal_LargePads" H 2750 9950 60  0001 C CNN
F 3 "" H 2750 9950 60  0000 C CNN
	1    2750 9950
	1    0    0    -1  
$EndComp
$Comp
L 7805-RESCUE-entrenador U2
U 1 1 59B6B422
P 2750 10550
F 0 "U2" H 2550 10750 40  0000 C CNN
F 1 "78m33" H 2900 10750 40  0000 C CNN
F 2 "TO_SOT_Packages_THT:TO-220_Neutral123_Horizontal_LargePads" H 2750 10550 60  0001 C CNN
F 3 "" H 2750 10550 60  0000 C CNN
	1    2750 10550
	1    0    0    -1  
$EndComp
$Comp
L C C1
U 1 1 59B6B4D1
P 1550 10200
F 0 "C1" H 1575 10300 50  0000 L CNN
F 1 "1u" H 1575 10100 50  0000 L CNN
F 2 "Discret:C1V8" H 1588 10050 50  0001 C CNN
F 3 "" H 1550 10200 50  0001 C CNN
	1    1550 10200
	1    0    0    -1  
$EndComp
Wire Wire Line
	1550 10050 1550 9900
Wire Wire Line
	2200 9900 2200 10500
Wire Wire Line
	2200 10500 2350 10500
Connection ~ 2200 9900
Wire Wire Line
	1350 10500 1850 10500
Wire Wire Line
	1550 10350 1550 10650
Connection ~ 1550 9900
Wire Wire Line
	1250 10000 1300 10000
Wire Wire Line
	1300 10000 1300 10100
Wire Wire Line
	1300 10100 1250 10100
Wire Wire Line
	1300 10050 1350 10050
Wire Wire Line
	1350 10050 1350 10500
Connection ~ 1550 10500
Connection ~ 1300 10050
Connection ~ 1850 10500
$Comp
L GND #PWR05
U 1 1 59B6BCB4
P 1550 10650
F 0 "#PWR05" H 1550 10400 50  0001 C CNN
F 1 "GND" H 1550 10500 50  0000 C CNN
F 2 "" H 1550 10650 50  0001 C CNN
F 3 "" H 1550 10650 50  0001 C CNN
	1    1550 10650
	1    0    0    -1  
$EndComp
$Comp
L C C7
U 1 1 59B6BF1A
P 3600 10100
F 0 "C7" H 3625 10200 50  0000 L CNN
F 1 "1u" H 3625 10000 50  0000 L CNN
F 2 "Discret:C1V8" H 3638 9950 50  0001 C CNN
F 3 "" H 3600 10100 50  0001 C CNN
	1    3600 10100
	1    0    0    -1  
$EndComp
$Comp
L C C8
U 1 1 59B6BFBD
P 3600 10700
F 0 "C8" H 3625 10800 50  0000 L CNN
F 1 "1u" H 3625 10600 50  0000 L CNN
F 2 "Discret:C1V8" H 3638 10550 50  0001 C CNN
F 3 "" H 3600 10700 50  0001 C CNN
	1    3600 10700
	1    0    0    -1  
$EndComp
Wire Wire Line
	2750 10200 2750 10300
Wire Wire Line
	2400 10300 3600 10300
Wire Wire Line
	3600 10300 3600 10250
Wire Wire Line
	3600 9950 3600 9900
Wire Wire Line
	3150 9900 3900 9900
Wire Wire Line
	3150 10500 3900 10500
Wire Wire Line
	3600 10500 3600 10550
Wire Wire Line
	2750 10800 2750 10900
Wire Wire Line
	1850 10900 3600 10900
Wire Wire Line
	3600 10900 3600 10850
$Comp
L GND #PWR06
U 1 1 59B6C4F5
P 2400 10200
F 0 "#PWR06" H 2400 9950 50  0001 C CNN
F 1 "GND" H 2400 10050 50  0000 C CNN
F 2 "" H 2400 10200 50  0001 C CNN
F 3 "" H 2400 10200 50  0001 C CNN
	1    2400 10200
	-1   0    0    1   
$EndComp
Wire Wire Line
	2400 10200 2400 10300
Connection ~ 2750 10300
Connection ~ 2750 10900
Wire Wire Line
	3900 9900 3900 10100
Connection ~ 3600 9900
Wire Wire Line
	3900 10500 3900 10750
Connection ~ 3600 10500
Wire Notes Line
	700  9600 4150 9600
Wire Notes Line
	4150 9600 4150 11100
Wire Notes Line
	4150 11100 700  11100
Wire Notes Line
	700  11100 700  9600
Text Notes 750  11050 0    99   ~ 0
Fuente
$Comp
L DS1307 U4
U 1 1 59B6CE04
P 11050 5600
F 0 "U4" H 11320 6150 60  0000 C CNN
F 1 "DS1307" H 11410 5050 60  0000 C CNN
F 2 "Housings_DIP:DIP-8_W7.62mm" H 11050 5600 60  0001 C CNN
F 3 "" H 11050 5600 60  0001 C CNN
	1    11050 5600
	1    0    0    -1  
$EndComp
$Comp
L 24LC256 U5
U 1 1 59B6CF86
P 11050 7300
F 0 "U5" H 10800 7550 50  0000 C CNN
F 1 "24LC256" H 11100 7550 50  0000 L CNN
F 2 "Housings_DIP:DIP-8_W7.62mm_LongPads" H 11100 7050 50  0001 L CNN
F 3 "" H 11050 7200 50  0001 C CNN
	1    11050 7300
	1    0    0    -1  
$EndComp
NoConn ~ 11900 5350
$Comp
L POT RV2
U 1 1 59B6D2E5
P 13250 5500
F 0 "RV2" V 13075 5500 50  0000 C CNN
F 1 "10k" V 13150 5500 50  0000 C CNN
F 2 "Potentiometers:Potentiometer_Alps-RK163-single_15mm" H 13250 5500 50  0001 C CNN
F 3 "" H 13250 5500 50  0001 C CNN
	1    13250 5500
	-1   0    0    1   
$EndComp
$Comp
L POT RV3
U 1 1 59B6D4E4
P 13800 5500
F 0 "RV3" V 13625 5500 50  0000 C CNN
F 1 "10k" V 13700 5500 50  0000 C CNN
F 2 "Potentiometers:Potentiometer_Alps-RK163-single_15mm" H 13800 5500 50  0001 C CNN
F 3 "" H 13800 5500 50  0001 C CNN
	1    13800 5500
	-1   0    0    1   
$EndComp
$Comp
L POT RV4
U 1 1 59B6D578
P 14350 5500
F 0 "RV4" V 14175 5500 50  0000 C CNN
F 1 "10k" V 14250 5500 50  0000 C CNN
F 2 "Potentiometers:Potentiometer_Alps-RK163-single_15mm" H 14350 5500 50  0001 C CNN
F 3 "" H 14350 5500 50  0001 C CNN
	1    14350 5500
	-1   0    0    1   
$EndComp
$Comp
L POT RV5
U 1 1 59B6D611
P 14900 5500
F 0 "RV5" V 14725 5500 50  0000 C CNN
F 1 "10k" V 14800 5500 50  0000 C CNN
F 2 "Potentiometers:Potentiometer_Alps-RK163-single_15mm" H 14900 5500 50  0001 C CNN
F 3 "" H 14900 5500 50  0001 C CNN
	1    14900 5500
	-1   0    0    1   
$EndComp
$Comp
L GND #PWR07
U 1 1 59B6DAAC
P 14050 5850
F 0 "#PWR07" H 14050 5600 50  0001 C CNN
F 1 "GND" H 14050 5700 50  0000 C CNN
F 2 "" H 14050 5850 50  0001 C CNN
F 3 "" H 14050 5850 50  0001 C CNN
	1    14050 5850
	1    0    0    -1  
$EndComp
Wire Wire Line
	14050 5850 14050 5800
Wire Wire Line
	13250 5800 14900 5800
Wire Wire Line
	14900 5800 14900 5650
Wire Wire Line
	14350 5650 14350 5800
Connection ~ 14350 5800
Wire Wire Line
	13800 5650 13800 5800
Connection ~ 14050 5800
Wire Wire Line
	13250 5650 13250 5800
Connection ~ 13800 5800
Wire Wire Line
	14900 5250 14900 5350
Wire Wire Line
	14350 5250 14350 5350
Wire Wire Line
	13800 5250 13800 5350
Wire Wire Line
	13250 5250 13250 5350
Wire Wire Line
	14750 5500 14700 5500
Wire Wire Line
	14700 5500 14700 4800
Wire Wire Line
	14200 5500 14150 5500
Wire Wire Line
	14150 5500 14150 4800
Wire Wire Line
	13650 5500 13600 5500
Wire Wire Line
	13600 5500 13600 4800
Wire Wire Line
	13100 5500 13050 5500
Wire Wire Line
	13050 5500 13050 4800
Entry Wire Line
	14600 4700 14700 4800
Entry Wire Line
	14050 4700 14150 4800
Entry Wire Line
	13500 4700 13600 4800
Entry Wire Line
	12950 4700 13050 4800
Text Label 13050 5500 1    60   ~ 0
An0
Text Label 13600 5500 1    60   ~ 0
An1
Text Label 14150 5500 1    60   ~ 0
An2
Text Label 14700 5500 1    60   ~ 0
An3
$Comp
L SW_DIP_x01-RESCUE-entrenador SW4
U 1 1 59B6EB74
P 13800 6900
F 0 "SW4" H 13800 7050 50  0000 C CNN
F 1 "pulsador" H 13800 6750 50  0000 C CNN
F 2 "w_switch:PCB_PUSH" H 13800 6900 50  0001 C CNN
F 3 "" H 13800 6900 50  0001 C CNN
	1    13800 6900
	0    1    1    0   
$EndComp
$Comp
L R R17
U 1 1 59B6EF37
P 14150 6900
F 0 "R17" V 14230 6900 50  0000 C CNN
F 1 "10k" V 14150 6900 50  0000 C CNN
F 2 "Discret:CP4" V 14080 6900 50  0001 C CNN
F 3 "" H 14150 6900 50  0001 C CNN
	1    14150 6900
	-1   0    0    1   
$EndComp
Wire Wire Line
	13800 6600 13800 6500
Wire Wire Line
	13800 6500 14150 6500
Wire Wire Line
	14150 6500 14150 6750
$Comp
L GND #PWR08
U 1 1 59B6F15A
P 14150 7150
F 0 "#PWR08" H 14150 6900 50  0001 C CNN
F 1 "GND" H 14150 7000 50  0000 C CNN
F 2 "" H 14150 7150 50  0001 C CNN
F 3 "" H 14150 7150 50  0001 C CNN
	1    14150 7150
	1    0    0    -1  
$EndComp
Wire Wire Line
	14150 7050 14150 7150
Wire Wire Line
	13800 7200 13800 7450
$Comp
L SW_DIP_x01-RESCUE-entrenador SW2
U 1 1 59B6F550
P 13150 6900
F 0 "SW2" H 13150 7050 50  0000 C CNN
F 1 "pulsador" H 13150 6750 50  0000 C CNN
F 2 "w_switch:PCB_PUSH" H 13150 6900 50  0001 C CNN
F 3 "" H 13150 6900 50  0001 C CNN
	1    13150 6900
	0    1    1    0   
$EndComp
$Comp
L R R12
U 1 1 59B6F556
P 13500 6900
F 0 "R12" V 13580 6900 50  0000 C CNN
F 1 "10k" V 13500 6900 50  0000 C CNN
F 2 "Discret:CP4" V 13430 6900 50  0001 C CNN
F 3 "" H 13500 6900 50  0001 C CNN
	1    13500 6900
	-1   0    0    1   
$EndComp
Wire Wire Line
	13150 6600 13150 6500
Wire Wire Line
	13150 6500 13500 6500
Wire Wire Line
	13500 6500 13500 6750
$Comp
L GND #PWR09
U 1 1 59B6F55F
P 13500 7150
F 0 "#PWR09" H 13500 6900 50  0001 C CNN
F 1 "GND" H 13500 7000 50  0000 C CNN
F 2 "" H 13500 7150 50  0001 C CNN
F 3 "" H 13500 7150 50  0001 C CNN
	1    13500 7150
	1    0    0    -1  
$EndComp
Wire Wire Line
	13500 7050 13500 7150
Wire Wire Line
	13150 7200 13150 7450
$Comp
L SW_DIP_x01-RESCUE-entrenador SW8
U 1 1 59B6F76D
P 15100 6900
F 0 "SW8" H 15100 7050 50  0000 C CNN
F 1 "pulsador" H 15100 6750 50  0000 C CNN
F 2 "w_switch:PCB_PUSH" H 15100 6900 50  0001 C CNN
F 3 "" H 15100 6900 50  0001 C CNN
	1    15100 6900
	0    1    1    0   
$EndComp
$Comp
L R R25
U 1 1 59B6F773
P 15450 6900
F 0 "R25" V 15530 6900 50  0000 C CNN
F 1 "10k" V 15450 6900 50  0000 C CNN
F 2 "Discret:CP4" V 15380 6900 50  0001 C CNN
F 3 "" H 15450 6900 50  0001 C CNN
	1    15450 6900
	-1   0    0    1   
$EndComp
Wire Wire Line
	15100 6600 15100 6500
Wire Wire Line
	15100 6500 15450 6500
Wire Wire Line
	15450 6500 15450 6750
$Comp
L GND #PWR010
U 1 1 59B6F77C
P 15450 7150
F 0 "#PWR010" H 15450 6900 50  0001 C CNN
F 1 "GND" H 15450 7000 50  0000 C CNN
F 2 "" H 15450 7150 50  0001 C CNN
F 3 "" H 15450 7150 50  0001 C CNN
	1    15450 7150
	1    0    0    -1  
$EndComp
Wire Wire Line
	15450 7050 15450 7150
Wire Wire Line
	15100 7200 15100 7450
$Comp
L SW_DIP_x01-RESCUE-entrenador SW6
U 1 1 59B6F78A
P 14450 6900
F 0 "SW6" H 14450 7050 50  0000 C CNN
F 1 "pulsador" H 14450 6750 50  0000 C CNN
F 2 "w_switch:PCB_PUSH" H 14450 6900 50  0001 C CNN
F 3 "" H 14450 6900 50  0001 C CNN
	1    14450 6900
	0    1    1    0   
$EndComp
$Comp
L R R22
U 1 1 59B6F790
P 14800 6900
F 0 "R22" V 14880 6900 50  0000 C CNN
F 1 "10k" V 14800 6900 50  0000 C CNN
F 2 "Discret:CP4" V 14730 6900 50  0001 C CNN
F 3 "" H 14800 6900 50  0001 C CNN
	1    14800 6900
	-1   0    0    1   
$EndComp
Wire Wire Line
	14450 6600 14450 6500
Wire Wire Line
	14450 6500 14800 6500
Wire Wire Line
	14800 6500 14800 6750
$Comp
L GND #PWR011
U 1 1 59B6F799
P 14800 7150
F 0 "#PWR011" H 14800 6900 50  0001 C CNN
F 1 "GND" H 14800 7000 50  0000 C CNN
F 2 "" H 14800 7150 50  0001 C CNN
F 3 "" H 14800 7150 50  0001 C CNN
	1    14800 7150
	1    0    0    -1  
$EndComp
Wire Wire Line
	14800 7050 14800 7150
Wire Wire Line
	14450 7200 14450 7450
$Comp
L SW_DIP_x01-RESCUE-entrenador SW5
U 1 1 59B6FF1F
P 13800 8350
F 0 "SW5" H 13800 8500 50  0000 C CNN
F 1 "pulsador" H 13800 8200 50  0000 C CNN
F 2 "w_switch:PCB_PUSH" H 13800 8350 50  0001 C CNN
F 3 "" H 13800 8350 50  0001 C CNN
	1    13800 8350
	0    1    1    0   
$EndComp
$Comp
L R R18
U 1 1 59B6FF25
P 14150 8350
F 0 "R18" V 14230 8350 50  0000 C CNN
F 1 "10k" V 14150 8350 50  0000 C CNN
F 2 "Discret:CP4" V 14080 8350 50  0001 C CNN
F 3 "" H 14150 8350 50  0001 C CNN
	1    14150 8350
	-1   0    0    1   
$EndComp
Wire Wire Line
	13800 8050 13800 7950
Wire Wire Line
	13800 7950 14150 7950
Wire Wire Line
	14150 7950 14150 8200
$Comp
L GND #PWR012
U 1 1 59B6FF2E
P 14150 8600
F 0 "#PWR012" H 14150 8350 50  0001 C CNN
F 1 "GND" H 14150 8450 50  0000 C CNN
F 2 "" H 14150 8600 50  0001 C CNN
F 3 "" H 14150 8600 50  0001 C CNN
	1    14150 8600
	1    0    0    -1  
$EndComp
Wire Wire Line
	14150 8500 14150 8600
Wire Wire Line
	13800 8650 13800 8950
$Comp
L SW_DIP_x01-RESCUE-entrenador SW3
U 1 1 59B6FF3C
P 13150 8350
F 0 "SW3" H 13150 8500 50  0000 C CNN
F 1 "pulsador" H 13150 8200 50  0000 C CNN
F 2 "w_switch:PCB_PUSH" H 13150 8350 50  0001 C CNN
F 3 "" H 13150 8350 50  0001 C CNN
	1    13150 8350
	0    1    1    0   
$EndComp
$Comp
L R R13
U 1 1 59B6FF42
P 13500 8350
F 0 "R13" V 13580 8350 50  0000 C CNN
F 1 "10k" V 13500 8350 50  0000 C CNN
F 2 "Discret:CP4" V 13430 8350 50  0001 C CNN
F 3 "" H 13500 8350 50  0001 C CNN
	1    13500 8350
	-1   0    0    1   
$EndComp
Wire Wire Line
	13150 8050 13150 7950
Wire Wire Line
	13150 7950 13500 7950
Wire Wire Line
	13500 7950 13500 8200
$Comp
L GND #PWR013
U 1 1 59B6FF4B
P 13500 8600
F 0 "#PWR013" H 13500 8350 50  0001 C CNN
F 1 "GND" H 13500 8450 50  0000 C CNN
F 2 "" H 13500 8600 50  0001 C CNN
F 3 "" H 13500 8600 50  0001 C CNN
	1    13500 8600
	1    0    0    -1  
$EndComp
Wire Wire Line
	13500 8500 13500 8600
Wire Wire Line
	13150 8650 13150 8950
$Comp
L SW_DIP_x01-RESCUE-entrenador SW9
U 1 1 59B6FF59
P 15100 8350
F 0 "SW9" H 15100 8500 50  0000 C CNN
F 1 "pulsador" H 15100 8200 50  0000 C CNN
F 2 "w_switch:PCB_PUSH" H 15100 8350 50  0001 C CNN
F 3 "" H 15100 8350 50  0001 C CNN
	1    15100 8350
	0    1    1    0   
$EndComp
$Comp
L R R26
U 1 1 59B6FF5F
P 15450 8350
F 0 "R26" V 15530 8350 50  0000 C CNN
F 1 "10k" V 15450 8350 50  0000 C CNN
F 2 "Discret:CP4" V 15380 8350 50  0001 C CNN
F 3 "" H 15450 8350 50  0001 C CNN
	1    15450 8350
	-1   0    0    1   
$EndComp
Wire Wire Line
	15100 8050 15100 7950
Wire Wire Line
	15100 7950 15450 7950
Wire Wire Line
	15450 7950 15450 8200
$Comp
L GND #PWR014
U 1 1 59B6FF68
P 15450 8600
F 0 "#PWR014" H 15450 8350 50  0001 C CNN
F 1 "GND" H 15450 8450 50  0000 C CNN
F 2 "" H 15450 8600 50  0001 C CNN
F 3 "" H 15450 8600 50  0001 C CNN
	1    15450 8600
	1    0    0    -1  
$EndComp
Wire Wire Line
	15450 8500 15450 8600
Wire Wire Line
	15100 8650 15100 8950
$Comp
L SW_DIP_x01-RESCUE-entrenador SW7
U 1 1 59B6FF76
P 14450 8350
F 0 "SW7" H 14450 8500 50  0000 C CNN
F 1 "pulsador" H 14450 8200 50  0000 C CNN
F 2 "w_switch:PCB_PUSH" H 14450 8350 50  0001 C CNN
F 3 "" H 14450 8350 50  0001 C CNN
	1    14450 8350
	0    1    1    0   
$EndComp
$Comp
L R R23
U 1 1 59B6FF7C
P 14800 8350
F 0 "R23" V 14880 8350 50  0000 C CNN
F 1 "10k" V 14800 8350 50  0000 C CNN
F 2 "Discret:CP4" V 14730 8350 50  0001 C CNN
F 3 "" H 14800 8350 50  0001 C CNN
	1    14800 8350
	-1   0    0    1   
$EndComp
Wire Wire Line
	14450 8050 14450 7950
Wire Wire Line
	14450 7950 14800 7950
Wire Wire Line
	14800 7950 14800 8200
$Comp
L GND #PWR015
U 1 1 59B6FF85
P 14800 8600
F 0 "#PWR015" H 14800 8350 50  0001 C CNN
F 1 "GND" H 14800 8450 50  0000 C CNN
F 2 "" H 14800 8600 50  0001 C CNN
F 3 "" H 14800 8600 50  0001 C CNN
	1    14800 8600
	1    0    0    -1  
$EndComp
Wire Wire Line
	14800 8500 14800 8600
Wire Wire Line
	14450 8650 14450 8950
Entry Wire Line
	13050 7850 13150 7950
Entry Wire Line
	13700 7850 13800 7950
Entry Wire Line
	14350 7850 14450 7950
Entry Wire Line
	15000 7850 15100 7950
Entry Wire Line
	15000 6400 15100 6500
Entry Wire Line
	14350 6400 14450 6500
Entry Wire Line
	13700 6400 13800 6500
Entry Wire Line
	13050 6400 13150 6500
Wire Bus Line
	13050 7850 15650 7850
Wire Bus Line
	12650 6400 15650 6400
Text Label 13150 6500 0    60   ~ 0
Pul-1
Text Label 13800 6500 0    60   ~ 0
Pul-2
Text Label 14450 6500 0    60   ~ 0
Pul-3
Text Label 15100 6500 0    60   ~ 0
Pul-4
Text Label 13150 7950 0    60   ~ 0
Pul-5
Text Label 13800 7950 0    60   ~ 0
Pul-6
Text Label 14450 7950 0    60   ~ 0
Pul-7
Text Label 15100 7950 0    60   ~ 0
Pul-8
$Comp
L R R7
U 1 1 59B71B16
P 12150 7000
F 0 "R7" V 12230 7000 50  0000 C CNN
F 1 "4.7k" V 12150 7000 50  0000 C CNN
F 2 "Discret:CP4" V 12080 7000 50  0001 C CNN
F 3 "" H 12150 7000 50  0001 C CNN
	1    12150 7000
	1    0    0    -1  
$EndComp
$Comp
L R R6
U 1 1 59B71D1E
P 11950 7000
F 0 "R6" V 12030 7000 50  0000 C CNN
F 1 "4.7k" V 11950 7000 50  0000 C CNN
F 2 "Discret:CP4" V 11880 7000 50  0001 C CNN
F 3 "" H 11950 7000 50  0001 C CNN
	1    11950 7000
	1    0    0    -1  
$EndComp
Wire Wire Line
	12150 7150 12150 7250
Wire Wire Line
	12150 7250 11950 7250
Wire Wire Line
	11950 7250 11950 7150
Wire Wire Line
	12050 7250 12050 7400
Connection ~ 12050 7250
Wire Wire Line
	11900 5800 12250 5800
Wire Wire Line
	11900 5950 12250 5950
Wire Wire Line
	11550 7200 11450 7200
Wire Wire Line
	11550 6650 11550 7200
Wire Wire Line
	11650 7300 11450 7300
Wire Wire Line
	11650 6650 11650 7300
Wire Wire Line
	12150 6850 12150 6650
Wire Wire Line
	11950 6850 11950 6650
Entry Wire Line
	12050 6550 12150 6650
Entry Wire Line
	11850 6550 11950 6650
Entry Wire Line
	11550 6550 11650 6650
Entry Wire Line
	11450 6550 11550 6650
Entry Wire Line
	12250 5950 12350 6050
Entry Wire Line
	12250 5800 12350 5900
Wire Bus Line
	12350 5900 12350 6550
Wire Bus Line
	12650 6550 11450 6550
Text Label 11950 5800 0    60   ~ 0
scl
Text Label 11950 5950 0    60   ~ 0
sda
Text Label 12150 6850 1    60   ~ 0
scl
Text Label 11950 6850 1    60   ~ 0
sda
Text Label 11650 7300 1    60   ~ 0
scl
Text Label 11550 7200 1    60   ~ 0
sda
Wire Bus Line
	15650 6400 15650 7850
$Comp
L GND #PWR016
U 1 1 59B74197
P 11050 7700
F 0 "#PWR016" H 11050 7450 50  0001 C CNN
F 1 "GND" H 11050 7550 50  0000 C CNN
F 2 "" H 11050 7700 50  0001 C CNN
F 3 "" H 11050 7700 50  0001 C CNN
	1    11050 7700
	1    0    0    -1  
$EndComp
$Comp
L GND #PWR017
U 1 1 59B74277
P 11050 6250
F 0 "#PWR017" H 11050 6000 50  0001 C CNN
F 1 "GND" H 11050 6100 50  0000 C CNN
F 2 "" H 11050 6250 50  0001 C CNN
F 3 "" H 11050 6250 50  0001 C CNN
	1    11050 6250
	1    0    0    -1  
$EndComp
Wire Wire Line
	11050 6200 11050 6250
Wire Wire Line
	11050 7600 11050 7700
Wire Wire Line
	11050 7000 11050 6950
$Comp
L Crystal X2
U 1 1 59B74C77
P 10000 5300
F 0 "X2" H 10000 5375 30  0000 C CNN
F 1 "32kHz" H 10000 5220 30  0000 C CNN
F 2 "Crystals:Crystal_Watch" H 10000 5300 60  0001 C CNN
F 3 "" H 10000 5300 60  0000 C CNN
	1    10000 5300
	-1   0    0    1   
$EndComp
$Comp
L BAT BT1
U 1 1 59B750B4
P 10050 6100
F 0 "BT1" H 9850 6150 40  0000 C CNN
F 1 "3.3V" H 9850 6050 40  0000 C CNN
F 2 "Battery_Holders:Keystone_104_1x23mm-CoinCell" V 10050 6140 60  0001 C CNN
F 3 "" V 10050 6140 60  0000 C CNN
	1    10050 6100
	1    0    0    -1  
$EndComp
Wire Wire Line
	10200 5850 10050 5850
Wire Wire Line
	10050 5850 10050 5950
Wire Wire Line
	10050 6250 10050 6350
$Comp
L GND #PWR018
U 1 1 59B754E5
P 10300 6250
F 0 "#PWR018" H 10300 6000 50  0001 C CNN
F 1 "GND" H 10300 6100 50  0000 C CNN
F 2 "" H 10300 6250 50  0001 C CNN
F 3 "" H 10300 6250 50  0001 C CNN
	1    10300 6250
	-1   0    0    1   
$EndComp
Wire Wire Line
	10300 6250 10300 6350
Wire Wire Line
	10300 6350 10050 6350
Wire Wire Line
	11450 7400 11550 7400
Wire Wire Line
	11550 7400 11550 7650
Wire Wire Line
	11550 7650 10550 7650
Connection ~ 11050 7650
Wire Wire Line
	10650 7200 10550 7200
Wire Wire Line
	10550 7200 10550 7650
Wire Wire Line
	10650 7400 10550 7400
Connection ~ 10550 7400
Wire Wire Line
	10650 7300 10550 7300
Connection ~ 10550 7300
Wire Wire Line
	11050 5000 11050 4950
$Comp
L ICSP-TAG J6
U 1 1 59B76BCD
P 11100 1500
F 0 "J6" H 11100 1100 60  0000 C CNN
F 1 "ICSP-TAG" H 11100 1900 60  0001 C CNN
F 2 "Pin_Headers:Pin_Header_Straight_2x03" H 11100 1000 60  0001 C CNN
F 3 "" H 11100 1500 60  0001 C CNN
	1    11100 1500
	1    0    0    -1  
$EndComp
NoConn ~ 10650 1750
Text GLabel 10500 1200 1    60   Input ~ 0
mclr
Text GLabel 10500 1800 3    60   Input ~ 0
pgc
Text GLabel 10350 1800 3    60   Input ~ 0
pgd
$Comp
L GND #PWR019
U 1 1 59B781A7
P 10400 1450
F 0 "#PWR019" H 10400 1200 50  0001 C CNN
F 1 "GND" H 10400 1300 50  0000 C CNN
F 2 "" H 10400 1450 50  0001 C CNN
F 3 "" H 10400 1450 50  0001 C CNN
	1    10400 1450
	0    1    1    0   
$EndComp
Wire Wire Line
	10650 1650 10500 1650
Wire Wire Line
	10500 1650 10500 1800
Wire Wire Line
	10350 1800 10350 1550
Wire Wire Line
	10350 1550 10650 1550
Wire Wire Line
	10500 1200 10500 1250
Wire Wire Line
	10500 1250 10650 1250
Wire Wire Line
	10650 1450 10400 1450
Wire Wire Line
	7500 2400 7500 2500
Wire Wire Line
	7200 2500 7200 2400
Text GLabel 10350 1200 1    60   Input ~ 0
vdd
Wire Wire Line
	10350 1200 10350 1350
Wire Wire Line
	10350 1350 10650 1350
Text GLabel 7100 1900 0    60   Input ~ 0
vdd
$Comp
L GND #PWR020
U 1 1 59B7BD6C
P 7250 8450
F 0 "#PWR020" H 7250 8200 50  0001 C CNN
F 1 "GND" H 7250 8300 50  0000 C CNN
F 2 "" H 7250 8450 50  0001 C CNN
F 3 "" H 7250 8450 50  0001 C CNN
	1    7250 8450
	1    0    0    -1  
$EndComp
Wire Wire Line
	7500 8400 7500 8300
Wire Wire Line
	7000 8400 7500 8400
Wire Wire Line
	7250 8400 7250 8450
Wire Wire Line
	7000 8300 7000 8400
Connection ~ 7250 8400
Wire Wire Line
	7100 8300 7100 8400
Connection ~ 7100 8400
Wire Wire Line
	7200 8300 7200 8400
Connection ~ 7200 8400
Wire Wire Line
	7300 8300 7300 8400
Connection ~ 7300 8400
Wire Wire Line
	7400 8300 7400 8400
Connection ~ 7400 8400
Entry Wire Line
	11250 10400 11350 10500
Entry Wire Line
	11000 10400 11100 10500
Entry Wire Line
	10700 10400 10800 10500
Entry Wire Line
	10400 10400 10500 10500
Entry Wire Line
	9500 8800 9600 8900
Entry Wire Line
	9500 9050 9600 9150
Entry Wire Line
	9500 9300 9600 9400
Entry Wire Line
	9500 9550 9600 9650
Wire Wire Line
	9600 8900 10150 8900
Wire Wire Line
	9600 9650 10150 9650
Wire Wire Line
	11250 8950 11250 10400
Wire Wire Line
	11000 10400 11000 10200
Wire Wire Line
	10700 10150 10700 10400
Wire Wire Line
	10400 10100 10400 10400
Wire Bus Line
	9500 8450 9500 10500
Entry Wire Line
	9100 7300 9200 7400
Entry Wire Line
	9100 7400 9200 7500
Entry Wire Line
	9100 7500 9200 7600
Entry Wire Line
	9100 7600 9200 7700
Entry Wire Line
	9100 7700 9200 7800
Entry Wire Line
	9100 7800 9200 7900
Entry Wire Line
	9100 7900 9200 8000
Entry Wire Line
	9100 8000 9200 8100
Wire Wire Line
	8900 7300 9100 7300
Wire Wire Line
	9100 7400 8900 7400
Wire Wire Line
	8900 7500 9100 7500
Wire Wire Line
	9100 7600 8900 7600
Wire Wire Line
	8900 7700 9100 7700
Wire Wire Line
	8900 7800 9100 7800
Wire Wire Line
	9100 7900 8900 7900
Wire Wire Line
	8900 8000 9100 8000
Wire Bus Line
	9200 7400 9200 8450
Wire Bus Line
	9200 8450 9500 8450
Text Label 8900 7300 0    60   ~ 0
R0
Text Label 8900 7400 0    60   ~ 0
R1
Text Label 8900 7500 0    60   ~ 0
R2
Text Label 8900 7600 0    60   ~ 0
R3
Text Label 8900 7700 0    60   ~ 0
C0
Text Label 8900 7800 0    60   ~ 0
C1
Text Label 8900 7900 0    60   ~ 0
C2
Text Label 8900 8000 0    60   ~ 0
C3
$Comp
L R 10k1
U 1 1 59B82553
P 4800 2100
F 0 "10k1" V 4880 2100 50  0000 C CNN
F 1 "R" V 4800 2100 50  0000 C CNN
F 2 "Discret:CP4" V 4730 2100 50  0001 C CNN
F 3 "" H 4800 2100 50  0001 C CNN
	1    4800 2100
	1    0    0    -1  
$EndComp
$Comp
L SW_DIP_x01-RESCUE-entrenador SW1
U 1 1 59B827E6
P 4800 2650
F 0 "SW1" H 4800 2800 50  0000 C CNN
F 1 "reset" H 4800 2500 50  0000 C CNN
F 2 "w_switch:PCB_PUSH" H 4800 2650 50  0001 C CNN
F 3 "" H 4800 2650 50  0001 C CNN
	1    4800 2650
	0    1    1    0   
$EndComp
Wire Wire Line
	5100 2050 5100 1850
Wire Wire Line
	5100 1850 4800 1850
Wire Wire Line
	4800 2250 4800 2350
$Comp
L GND #PWR021
U 1 1 59B83D92
P 4900 3250
F 0 "#PWR021" H 4900 3000 50  0001 C CNN
F 1 "GND" H 4900 3100 50  0000 C CNN
F 2 "" H 4900 3250 50  0001 C CNN
F 3 "" H 4900 3250 50  0001 C CNN
	1    4900 3250
	-1   0    0    1   
$EndComp
Wire Wire Line
	4800 2950 4800 3600
Wire Wire Line
	4800 2300 4950 2300
Wire Wire Line
	4950 2300 4950 2450
Wire Wire Line
	4950 2450 5350 2450
Wire Wire Line
	5300 2450 5300 2800
Wire Wire Line
	5300 2800 5700 2800
Connection ~ 4800 2300
Wire Wire Line
	4800 1850 4800 1950
Text GLabel 5350 2100 1    60   Input ~ 0
mclr
Wire Wire Line
	5350 2450 5350 2100
Connection ~ 5300 2450
Text GLabel 12250 4900 0    60   Input ~ 0
pgc
Text GLabel 12250 5100 0    60   Input ~ 0
pgd
Wire Wire Line
	9300 5200 8900 5200
Wire Wire Line
	8900 5300 9300 5300
Text Label 9650 8900 0    60   ~ 0
R0
Text Label 11250 10300 0    60   ~ 0
R1
Text Label 9650 9150 0    60   ~ 0
R2
Text Label 11000 10300 0    60   ~ 0
R3
Text Label 9650 9400 0    60   ~ 0
C0
Text Label 10700 10300 0    60   ~ 0
C1
Text Label 9650 9650 0    60   ~ 0
C2
Text Label 10400 10300 0    60   ~ 0
C3
$Comp
L RJ45 J7
U 1 1 59B88956
P 11150 2500
F 0 "J7" H 11350 3000 50  0000 C CNN
F 1 "RJ45" H 11000 3000 50  0000 C CNN
F 2 "Connectors:RJ45_12" H 11150 2500 50  0001 C CNN
F 3 "" H 11150 2500 50  0001 C CNN
	1    11150 2500
	1    0    0    -1  
$EndComp
$Comp
L Crystal X1
U 1 1 59B893AF
P 5350 3200
F 0 "X1" H 5350 3275 30  0000 C CNN
F 1 "25MHz" H 5350 3120 30  0000 C CNN
F 2 "Crystals:HC-49V" H 5350 3200 60  0001 C CNN
F 3 "" H 5350 3200 60  0000 C CNN
	1    5350 3200
	0    1    1    0   
$EndComp
Wire Wire Line
	5700 3100 5600 3100
Wire Wire Line
	5600 3100 5600 3000
Wire Wire Line
	5600 3000 5200 3000
Wire Wire Line
	5350 3400 5600 3400
Wire Wire Line
	5600 3400 5600 3300
Wire Wire Line
	5600 3300 5700 3300
$Comp
L C C9
U 1 1 59B8A457
P 5050 3300
F 0 "C9" H 5075 3400 50  0000 L CNN
F 1 "33p" H 5075 3200 50  0000 L CNN
F 2 "Discret:C1V8" H 5088 3150 50  0001 C CNN
F 3 "" H 5050 3300 50  0001 C CNN
	1    5050 3300
	1    0    0    -1  
$EndComp
$Comp
L C C10
U 1 1 59B8AEA2
P 5300 3600
F 0 "C10" V 5250 3650 50  0000 L CNN
F 1 "33p" V 5250 3400 50  0000 L CNN
F 2 "Discret:C1V8" H 5338 3450 50  0001 C CNN
F 3 "" H 5300 3600 50  0001 C CNN
	1    5300 3600
	0    1    1    0   
$EndComp
Wire Wire Line
	5500 3400 5500 3600
Wire Wire Line
	5500 3600 5450 3600
Connection ~ 5500 3400
Wire Wire Line
	4800 3600 5150 3600
Wire Wire Line
	5050 3600 5050 3450
Wire Wire Line
	5050 3150 5050 3050
Wire Wire Line
	5050 3050 5200 3050
Wire Wire Line
	5200 3050 5200 3000
Connection ~ 5050 3600
Wire Wire Line
	4900 3250 4900 3350
Wire Wire Line
	4900 3350 4800 3350
Connection ~ 4800 3350
Wire Wire Line
	8900 4000 9300 4000
Wire Wire Line
	8900 4100 9300 4100
Wire Wire Line
	8900 4200 9300 4200
Wire Wire Line
	8900 4300 9300 4300
Entry Wire Line
	9300 4000 9400 4100
Entry Wire Line
	9300 4100 9400 4200
Entry Wire Line
	9300 4200 9400 4300
Entry Wire Line
	9300 4300 9400 4400
Text Label 8950 4100 0    60   ~ 0
An1
Text Label 8950 4200 0    60   ~ 0
An2
Text Label 8950 4300 0    60   ~ 0
An3
Text Label 8950 4000 0    60   ~ 0
An0
Wire Bus Line
	9400 4100 9400 4400
Wire Wire Line
	8900 4600 9300 4600
Wire Wire Line
	8900 4700 9300 4700
Wire Wire Line
	8900 4800 9300 4800
Wire Wire Line
	8900 4900 9300 4900
Wire Wire Line
	8900 5000 9300 5000
Wire Wire Line
	8900 5100 9300 5100
Wire Wire Line
	8900 5900 9300 5900
Wire Wire Line
	8900 5800 9300 5800
Entry Wire Line
	9300 4600 9400 4700
Entry Wire Line
	9300 4700 9400 4800
Entry Wire Line
	9300 4800 9400 4900
Entry Wire Line
	9300 4900 9400 5000
Entry Wire Line
	9300 5000 9400 5100
Entry Wire Line
	9300 5100 9400 5200
Entry Wire Line
	9300 5200 9400 5300
Entry Wire Line
	9300 5300 9400 5400
Wire Bus Line
	12650 4550 12650 6550
Wire Bus Line
	12650 4550 9400 4550
Wire Bus Line
	9400 4550 9400 6000
Entry Wire Line
	12550 4900 12650 5000
Entry Wire Line
	12550 5100 12650 5200
Wire Wire Line
	12550 4900 12250 4900
Wire Wire Line
	12550 5100 12250 5100
Text Label 8950 4600 0    60   ~ 0
Pul-1
Text Label 8950 4700 0    60   ~ 0
Pul-2
Text Label 8950 4800 0    60   ~ 0
Pul-3
Text Label 8950 4900 0    60   ~ 0
Pul-4
Text Label 8950 5000 0    60   ~ 0
Pul-5
Text Label 8950 5100 0    60   ~ 0
Pul-6
Text Label 8950 5200 0    60   ~ 0
Pul-7
Text Label 8950 5300 0    60   ~ 0
Pul-8
Text Label 12300 4900 0    60   ~ 0
Pul-7
Text Label 12300 5100 0    60   ~ 0
Pul-8
Wire Bus Line
	9400 4100 11650 4100
Wire Bus Line
	11650 4100 11650 4450
Wire Bus Line
	11650 4450 12950 4450
Wire Bus Line
	12950 4450 12950 4700
Wire Bus Line
	12950 4700 14600 4700
Wire Bus Line
	11950 2800 14450 2800
Entry Wire Line
	9300 5800 9400 5900
Entry Wire Line
	9300 5900 9400 6000
Text Label 8950 5800 0    60   ~ 0
scl
Text Label 8950 5900 0    60   ~ 0
sda
Wire Wire Line
	5700 4800 5300 4800
Wire Wire Line
	5700 4900 5300 4900
Wire Wire Line
	5700 5000 5300 5000
Wire Wire Line
	5700 5100 5300 5100
Wire Wire Line
	5700 5200 5300 5200
Wire Wire Line
	5700 5300 5300 5300
Wire Wire Line
	5700 5400 5300 5400
Text Label 5300 4900 0    60   ~ 0
led-1
Text Label 5300 5000 0    60   ~ 0
led-2
Text Label 5300 5100 0    60   ~ 0
led-3
Text Label 5300 5200 0    60   ~ 0
led-4
Text Label 5300 5300 0    60   ~ 0
led-5
Text Label 5300 5400 0    60   ~ 0
led-6
Text Label 5300 5500 0    60   ~ 0
led-7
Text Label 5300 4800 0    60   ~ 0
led-0
Wire Wire Line
	5700 3900 5300 3900
Wire Wire Line
	5700 4000 5300 4000
Wire Wire Line
	5700 4100 5300 4100
Wire Wire Line
	5700 4200 5300 4200
Wire Wire Line
	5700 4300 5300 4300
Wire Wire Line
	5700 4400 5300 4400
Wire Wire Line
	5700 4500 5300 4500
Wire Wire Line
	5700 4600 5300 4600
Text Label 13050 2250 1    60   ~ 0
RS
Text Label 13150 2250 1    60   ~ 0
R/W
Text Label 13250 2250 1    60   ~ 0
E
Text Label 13850 2250 1    60   ~ 0
LCD4
Text Label 13950 2250 1    60   ~ 0
LCD5
Text Label 14050 2250 1    60   ~ 0
LCD6
Text Label 14150 2250 1    60   ~ 0
LCD7
$Comp
L 2N3904 Q1
U 1 1 59B9A852
P 15050 2350
F 0 "Q1" H 15250 2425 50  0000 L CNN
F 1 "2N3904" H 15250 2350 50  0000 L CNN
F 2 "TO_SOT_Packages_THT:TO-92_Molded_Narrow" H 15250 2275 50  0001 L CIN
F 3 "" H 15050 2350 50  0001 L CNN
	1    15050 2350
	1    0    0    -1  
$EndComp
Wire Wire Line
	14350 2350 14350 2700
Text Label 14350 2700 1    60   ~ 0
LCD-LED
$Comp
L R R20
U 1 1 59B9ADA6
P 14600 2350
F 0 "R20" V 14680 2350 50  0000 C CNN
F 1 "400" V 14600 2350 50  0000 C CNN
F 2 "Discret:CP4" V 14530 2350 50  0001 C CNN
F 3 "" H 14600 2350 50  0001 C CNN
	1    14600 2350
	0    1    1    0   
$EndComp
Wire Wire Line
	14350 2350 14450 2350
Wire Wire Line
	14750 2350 14850 2350
Wire Wire Line
	15150 2550 15150 2650
Wire Wire Line
	15150 2150 15150 2100
$Comp
L R R24
U 1 1 59B9B9E3
P 14900 2100
F 0 "R24" V 14980 2100 50  0000 C CNN
F 1 "500" V 14900 2100 50  0000 C CNN
F 2 "Discret:CP4" V 14830 2100 50  0001 C CNN
F 3 "" H 14900 2100 50  0001 C CNN
	1    14900 2100
	0    1    1    0   
$EndComp
Wire Wire Line
	14450 2100 14550 2100
Wire Wire Line
	14550 2100 14550 2000
Wire Wire Line
	14550 2000 14750 2000
Wire Wire Line
	14750 2000 14750 2100
Wire Wire Line
	14450 2150 14350 2150
Wire Wire Line
	14350 2150 14350 2050
Wire Wire Line
	15150 2100 15050 2100
Text Label 5300 3900 0    60   ~ 0
RS
Text Label 5300 4000 0    60   ~ 0
R/W
Text Label 5300 4100 0    60   ~ 0
E
Text Label 5300 4300 0    60   ~ 0
LCD4
Text Label 5300 4400 0    60   ~ 0
LCD5
Text Label 5300 4500 0    60   ~ 0
LCD6
Text Label 5300 4600 0    60   ~ 0
LCD7
Text Label 5300 4200 0    60   ~ 0
LCD-LED
Entry Wire Line
	5200 3800 5300 3900
Entry Wire Line
	5200 3900 5300 4000
Entry Wire Line
	5200 4000 5300 4100
Entry Wire Line
	5200 4100 5300 4200
Entry Wire Line
	5200 4200 5300 4300
Entry Wire Line
	5200 4300 5300 4400
Entry Wire Line
	5200 4400 5300 4500
Entry Wire Line
	5200 4500 5300 4600
Entry Wire Line
	5200 4700 5300 4800
Entry Wire Line
	5200 4800 5300 4900
Entry Wire Line
	5200 4900 5300 5000
Entry Wire Line
	5200 5000 5300 5100
Entry Wire Line
	5200 5100 5300 5200
Entry Wire Line
	5200 5200 5300 5300
Entry Wire Line
	5200 5300 5300 5400
Entry Wire Line
	5200 5400 5300 5500
Wire Bus Line
	5200 3800 5200 5400
Wire Bus Line
	4450 3800 5200 3800
Wire Bus Line
	4450 3800 4450 1750
Wire Bus Line
	4450 1750 9900 1750
Wire Bus Line
	9900 1750 9900 850 
Wire Bus Line
	9900 850  11950 850 
Wire Bus Line
	11950 850  11950 2800
$Comp
L Conn_02x05_Odd_Even J2
U 1 1 59BA224B
P 2550 3850
F 0 "J2" H 2600 4150 50  0000 C CNN
F 1 "Port_H" H 2600 3550 50  0000 C CNN
F 2 "Pin_Headers:Pin_Header_Straight_2x05" H 2550 3850 50  0001 C CNN
F 3 "" H 2550 3850 50  0001 C CNN
	1    2550 3850
	1    0    0    -1  
$EndComp
Wire Wire Line
	2850 3650 3250 3650
Wire Wire Line
	2850 3750 3250 3750
Wire Wire Line
	2850 3850 3250 3850
Wire Wire Line
	2850 3950 3250 3950
Wire Wire Line
	1800 3650 2350 3650
Wire Wire Line
	1850 3750 2350 3750
Wire Wire Line
	1900 3850 2350 3850
Wire Wire Line
	1950 3950 2350 3950
$Comp
L GND #PWR022
U 1 1 59BA492E
P 2150 4150
F 0 "#PWR022" H 2150 3900 50  0001 C CNN
F 1 "GND" H 2150 4000 50  0000 C CNN
F 2 "" H 2150 4150 50  0001 C CNN
F 3 "" H 2150 4150 50  0001 C CNN
	1    2150 4150
	1    0    0    -1  
$EndComp
Wire Wire Line
	3050 4150 3050 4050
Wire Wire Line
	3050 4050 2850 4050
Wire Wire Line
	2150 4150 2150 4050
Wire Wire Line
	2150 4050 2350 4050
$Comp
L Conn_02x05_Odd_Even J3
U 1 1 59BA5E97
P 2550 5450
F 0 "J3" H 2600 5750 50  0000 C CNN
F 1 "Port_J" H 2600 5150 50  0000 C CNN
F 2 "Pin_Headers:Pin_Header_Straight_2x05" H 2550 5450 50  0001 C CNN
F 3 "" H 2550 5450 50  0001 C CNN
	1    2550 5450
	1    0    0    -1  
$EndComp
Wire Wire Line
	2850 5250 3250 5250
Wire Wire Line
	2850 5350 3250 5350
Wire Wire Line
	2850 5450 3250 5450
Wire Wire Line
	2850 5550 3250 5550
Wire Wire Line
	1850 5350 2350 5350
Wire Wire Line
	1900 5450 2350 5450
Wire Wire Line
	1950 5550 2350 5550
$Comp
L GND #PWR023
U 1 1 59BA5EA5
P 2150 5750
F 0 "#PWR023" H 2150 5500 50  0001 C CNN
F 1 "GND" H 2150 5600 50  0000 C CNN
F 2 "" H 2150 5750 50  0001 C CNN
F 3 "" H 2150 5750 50  0001 C CNN
	1    2150 5750
	1    0    0    -1  
$EndComp
Wire Wire Line
	3050 5750 3050 5650
Wire Wire Line
	3050 5650 2850 5650
Wire Wire Line
	2150 5750 2150 5650
Wire Wire Line
	2150 5650 2350 5650
Text Label 2050 3650 0    60   ~ 0
RH0
Text Label 2950 3650 0    60   ~ 0
RH1
Text Label 2050 3750 0    60   ~ 0
RH2
Text Label 2950 3750 0    60   ~ 0
RH3
Text Label 2050 3850 0    60   ~ 0
RH4
Text Label 2950 3850 0    60   ~ 0
RH5
Text Label 2050 3950 0    60   ~ 0
RH6
Text Label 2950 3950 0    60   ~ 0
RH7
Wire Wire Line
	1950 3950 1950 4450
Wire Wire Line
	1950 4450 3250 4450
Wire Wire Line
	1900 3850 1900 4550
Wire Wire Line
	1900 4550 3250 4550
Wire Wire Line
	1850 3750 1850 4650
Wire Wire Line
	1850 4650 3250 4650
Wire Wire Line
	1800 3650 1800 4750
Wire Wire Line
	1800 4750 3250 4750
Wire Wire Line
	1950 5550 1950 6100
Wire Wire Line
	1950 6100 3250 6100
Wire Wire Line
	1900 5450 1900 6200
Wire Wire Line
	1900 6200 3250 6200
Wire Wire Line
	1850 5350 1850 6300
Wire Wire Line
	1850 6300 3250 6300
Wire Wire Line
	2350 5250 1800 5250
Wire Wire Line
	1800 5250 1800 6400
Wire Wire Line
	1800 6400 3250 6400
$Comp
L Conn_02x05_Odd_Even J4
U 1 1 59BA8984
P 2550 7250
F 0 "J4" H 2600 7550 50  0000 C CNN
F 1 "Port_D" H 2600 6950 50  0000 C CNN
F 2 "Pin_Headers:Pin_Header_Straight_2x05" H 2550 7250 50  0001 C CNN
F 3 "" H 2550 7250 50  0001 C CNN
	1    2550 7250
	1    0    0    -1  
$EndComp
Wire Wire Line
	2850 7050 3250 7050
Wire Wire Line
	2850 7150 3250 7150
Wire Wire Line
	2850 7250 3250 7250
Wire Wire Line
	2850 7350 3250 7350
Wire Wire Line
	1850 7150 2350 7150
Wire Wire Line
	1900 7250 2350 7250
Wire Wire Line
	1950 7350 2350 7350
$Comp
L GND #PWR024
U 1 1 59BA8991
P 2150 7550
F 0 "#PWR024" H 2150 7300 50  0001 C CNN
F 1 "GND" H 2150 7400 50  0000 C CNN
F 2 "" H 2150 7550 50  0001 C CNN
F 3 "" H 2150 7550 50  0001 C CNN
	1    2150 7550
	1    0    0    -1  
$EndComp
Wire Wire Line
	3050 7550 3050 7450
Wire Wire Line
	3050 7450 2850 7450
Wire Wire Line
	2150 7550 2150 7450
Wire Wire Line
	2150 7450 2350 7450
Wire Wire Line
	1950 7350 1950 7900
Wire Wire Line
	1950 7900 3250 7900
Wire Wire Line
	1900 7250 1900 8000
Wire Wire Line
	1900 8000 3250 8000
Wire Wire Line
	1850 7150 1850 8100
Wire Wire Line
	1850 8100 3250 8100
Wire Wire Line
	2350 7050 1800 7050
Wire Wire Line
	1800 7050 1800 8200
Wire Wire Line
	1800 8200 3250 8200
Text Label 2050 5250 0    60   ~ 0
RJ0
Text Label 2950 5250 0    60   ~ 0
RJ1
Text Label 2050 5350 0    60   ~ 0
RJ2
Text Label 2950 5350 0    60   ~ 0
RJ3
Text Label 2050 5450 0    60   ~ 0
RJ4
Text Label 2950 5450 0    60   ~ 0
RJ5
Text Label 2050 5550 0    60   ~ 0
RJ6
Text Label 2950 5550 0    60   ~ 0
RJ7
Wire Wire Line
	5700 5700 5300 5700
Wire Wire Line
	5700 5800 5300 5800
Wire Wire Line
	5700 5900 5300 5900
Wire Wire Line
	5700 6000 5300 6000
Wire Wire Line
	5700 6100 5300 6100
Wire Wire Line
	5700 6200 5300 6200
Wire Wire Line
	5700 6300 5300 6300
Wire Wire Line
	5700 6400 5300 6400
Wire Wire Line
	5700 6600 5300 6600
Wire Wire Line
	5700 6700 5300 6700
Wire Wire Line
	5700 6800 5300 6800
Wire Wire Line
	5700 6900 5300 6900
Wire Wire Line
	5700 7000 5300 7000
Wire Wire Line
	5700 7100 5300 7100
Wire Wire Line
	5700 7200 5300 7200
Wire Wire Line
	5700 7300 5300 7300
Entry Wire Line
	3250 3650 3350 3750
Entry Wire Line
	3250 3750 3350 3850
Entry Wire Line
	3250 3850 3350 3950
Entry Wire Line
	3250 3950 3350 4050
Entry Wire Line
	3250 4450 3350 4550
Entry Wire Line
	3250 4550 3350 4650
Entry Wire Line
	3250 4650 3350 4750
Entry Wire Line
	3250 4750 3350 4850
Entry Wire Line
	3250 5250 3350 5350
Entry Wire Line
	3250 5350 3350 5450
Entry Wire Line
	3250 5450 3350 5550
Entry Wire Line
	3250 5550 3350 5650
Entry Wire Line
	3250 6100 3350 6200
Entry Wire Line
	3250 6200 3350 6300
Entry Wire Line
	3250 6300 3350 6400
Entry Wire Line
	3250 6400 3350 6500
Entry Wire Line
	3250 7050 3350 7150
Entry Wire Line
	3250 7150 3350 7250
Entry Wire Line
	3250 7250 3350 7350
Entry Wire Line
	3250 7350 3350 7450
Entry Wire Line
	3250 7900 3350 8000
Entry Wire Line
	3250 8000 3350 8100
Entry Wire Line
	3250 8100 3350 8200
Entry Wire Line
	3250 8200 3350 8300
Wire Bus Line
	3350 3750 3350 6500
Entry Wire Line
	5200 5600 5300 5700
Entry Wire Line
	5200 5700 5300 5800
Entry Wire Line
	5200 5800 5300 5900
Entry Wire Line
	5200 5900 5300 6000
Entry Wire Line
	5200 6000 5300 6100
Entry Wire Line
	5200 6100 5300 6200
Entry Wire Line
	5200 6200 5300 6300
Entry Wire Line
	5200 6300 5300 6400
Entry Wire Line
	5200 6500 5300 6600
Entry Wire Line
	5200 6600 5300 6700
Entry Wire Line
	5200 6700 5300 6800
Entry Wire Line
	5200 6800 5300 6900
Entry Wire Line
	5200 6900 5300 7000
Entry Wire Line
	5200 7000 5300 7100
Entry Wire Line
	5200 7200 5300 7300
Entry Wire Line
	5200 7100 5300 7200
Wire Bus Line
	5200 5600 5200 7200
Wire Bus Line
	3350 5850 4500 5850
Wire Bus Line
	4500 5850 4500 6450
Wire Bus Line
	4500 6450 5200 6450
Text Label 5350 5700 0    60   ~ 0
RH0
Text Label 5350 5800 0    60   ~ 0
RH1
Text Label 5350 5900 0    60   ~ 0
RH2
Text Label 5350 6000 0    60   ~ 0
RH3
Text Label 5350 6100 0    60   ~ 0
RH4
Text Label 5350 6200 0    60   ~ 0
RH5
Text Label 5350 6300 0    60   ~ 0
RH6
Text Label 5350 6400 0    60   ~ 0
RH7
Text Label 5350 6600 0    60   ~ 0
RJ0
Text Label 5350 6700 0    60   ~ 0
RJ1
Text Label 5350 6800 0    60   ~ 0
RJ2
Text Label 5350 6900 0    60   ~ 0
RJ3
Text Label 5350 7000 0    60   ~ 0
RJ4
Text Label 5350 7100 0    60   ~ 0
RJ5
Text Label 5350 7200 0    60   ~ 0
RJ6
Text Label 5350 7300 0    60   ~ 0
RJ7
Text Label 2050 7050 0    60   ~ 0
RD0
Text Label 2950 7050 0    60   ~ 0
RD1
Text Label 2050 7150 0    60   ~ 0
RD2
Text Label 2950 7150 0    60   ~ 0
RD3
Text Label 2050 7250 0    60   ~ 0
RD4
Text Label 2950 7250 0    60   ~ 0
RD5
Text Label 2050 7350 0    60   ~ 0
RD6
Text Label 2950 7350 0    60   ~ 0
RD7
Wire Wire Line
	8900 6400 9250 6400
Wire Wire Line
	8900 6500 9250 6500
Wire Wire Line
	8900 6600 9250 6600
Wire Wire Line
	8900 6700 9250 6700
Wire Wire Line
	8900 6800 9250 6800
Wire Wire Line
	8900 6900 9250 6900
Wire Wire Line
	8900 7000 9250 7000
Wire Wire Line
	8900 7100 9250 7100
Text Label 8950 6400 0    60   ~ 0
RD0
Text Label 8950 6500 0    60   ~ 0
RD1
Text Label 8950 6600 0    60   ~ 0
RD2
Text Label 8950 6700 0    60   ~ 0
RD3
Text Label 8950 6800 0    60   ~ 0
RD4
Text Label 8950 6900 0    60   ~ 0
RD5
Text Label 8950 7000 0    60   ~ 0
RD6
Text Label 8950 7100 0    60   ~ 0
RD7
Entry Wire Line
	9250 6400 9350 6500
Entry Wire Line
	9250 6500 9350 6600
Entry Wire Line
	9250 6600 9350 6700
Entry Wire Line
	9250 6700 9350 6800
Entry Wire Line
	9250 6800 9350 6900
Entry Wire Line
	9250 6900 9350 7000
Entry Wire Line
	9250 7000 9350 7100
Entry Wire Line
	9250 7100 9350 7200
Wire Bus Line
	9350 6500 9350 8300
Wire Bus Line
	9350 8300 11700 8300
Wire Bus Line
	11700 8300 11700 10850
Wire Bus Line
	11700 10850 4450 10850
Wire Bus Line
	4450 10850 4450 9350
Wire Bus Line
	4450 9350 3350 9350
Wire Bus Line
	3350 9350 3350 7150
Wire Bus Line
	9500 10500 11350 10500
Text GLabel 9100 5400 2    60   Input ~ 0
RC0
Text GLabel 9100 5550 2    60   Input ~ 0
RC1
Text GLabel 9100 5700 2    60   Input ~ 0
RC2
Wire Wire Line
	8900 5500 8950 5500
Wire Wire Line
	8950 5500 8950 5400
Wire Wire Line
	8950 5400 9100 5400
Wire Wire Line
	9100 5550 9000 5550
Wire Wire Line
	9000 5550 9000 5600
Wire Wire Line
	9000 5600 8900 5600
Wire Wire Line
	8900 5700 9100 5700
Text GLabel 6850 9050 2    60   Input ~ 0
RC0
Text GLabel 6850 9200 2    60   Input ~ 0
RC1
Text GLabel 6850 9350 2    60   Input ~ 0
RC2
Text GLabel 9100 6000 2    60   Input ~ 0
RC5
Text GLabel 9100 6150 2    60   Input ~ 0
RC6
Text GLabel 9100 6300 2    60   Input ~ 0
RC7
Wire Wire Line
	9100 6000 8900 6000
Wire Wire Line
	9100 6150 9050 6150
Wire Wire Line
	9050 6150 9050 6100
Wire Wire Line
	9050 6100 8900 6100
Wire Wire Line
	8900 6200 9000 6200
Wire Wire Line
	9000 6200 9000 6300
Wire Wire Line
	9000 6300 9100 6300
Text GLabel 6850 9500 2    60   Input ~ 0
RC5
Text GLabel 6850 9650 2    60   Input ~ 0
RC6
Text GLabel 5550 9650 0    60   Input ~ 0
RC7
Text GLabel 9600 4300 2    60   Input ~ 0
RA4
Text GLabel 9600 4450 2    60   Input ~ 0
RA5
Wire Wire Line
	9600 4300 9500 4300
Wire Wire Line
	9500 4300 9500 4450
Wire Wire Line
	9500 4450 9050 4450
Wire Wire Line
	9050 4450 9050 4400
Wire Wire Line
	9050 4400 8900 4400
Wire Wire Line
	8900 4500 9550 4500
Wire Wire Line
	9550 4500 9550 4450
Wire Wire Line
	9550 4450 9600 4450
Text GLabel 5550 9350 0    60   Input ~ 0
RA4
Text GLabel 5550 9500 0    60   Input ~ 0
RA5
Text GLabel 4550 3550 1    60   Input ~ 0
VDDCORE
Text GLabel 4700 3550 1    60   Input ~ 0
ENVREG
Wire Wire Line
	5700 3500 5550 3500
Wire Wire Line
	5550 3500 5550 3700
Wire Wire Line
	5550 3700 4700 3700
Wire Wire Line
	4700 3700 4700 3550
Wire Wire Line
	4550 3550 4550 3750
Wire Wire Line
	4550 3750 5600 3750
Wire Wire Line
	5600 3750 5600 3700
Wire Wire Line
	5600 3700 5700 3700
Text GLabel 2550 1800 2    60   Input ~ 0
VDDCORE
Text GLabel 2550 1450 2    60   Input ~ 0
ENVREG
$Comp
L C C20
U 1 1 59B6C804
P 15050 4650
F 0 "C20" H 15075 4750 50  0000 L CNN
F 1 "100n" H 15075 4550 50  0000 L CNN
F 2 "Discret:C1V8" H 15088 4500 50  0001 C CNN
F 3 "" H 15050 4650 50  0001 C CNN
	1    15050 4650
	1    0    0    -1  
$EndComp
$Comp
L C C21
U 1 1 59B6CC0F
P 15300 4650
F 0 "C21" H 15325 4750 50  0000 L CNN
F 1 "100n" H 15325 4550 50  0000 L CNN
F 2 "Discret:C1V8" H 15338 4500 50  0001 C CNN
F 3 "" H 15300 4650 50  0001 C CNN
	1    15300 4650
	1    0    0    -1  
$EndComp
$Comp
L C C22
U 1 1 59B6CD04
P 15550 4650
F 0 "C22" H 15575 4750 50  0000 L CNN
F 1 "100n" H 15575 4550 50  0000 L CNN
F 2 "Discret:C1V8" H 15588 4500 50  0001 C CNN
F 3 "" H 15550 4650 50  0001 C CNN
	1    15550 4650
	1    0    0    -1  
$EndComp
$Comp
L C C23
U 1 1 59B6CE00
P 15800 4650
F 0 "C23" H 15825 4750 50  0000 L CNN
F 1 "100n" H 15825 4550 50  0000 L CNN
F 2 "Discret:C1V8" H 15838 4500 50  0001 C CNN
F 3 "" H 15800 4650 50  0001 C CNN
	1    15800 4650
	1    0    0    -1  
$EndComp
$Comp
L GND #PWR025
U 1 1 59B6CF42
P 15450 4900
F 0 "#PWR025" H 15450 4650 50  0001 C CNN
F 1 "GND" H 15450 4750 50  0000 C CNN
F 2 "" H 15450 4900 50  0001 C CNN
F 3 "" H 15450 4900 50  0001 C CNN
	1    15450 4900
	1    0    0    -1  
$EndComp
Wire Wire Line
	15050 4800 15050 4900
Wire Wire Line
	15050 4900 15800 4900
Wire Wire Line
	15800 4900 15800 4800
Connection ~ 15450 4900
Wire Wire Line
	15550 4800 15550 4900
Connection ~ 15550 4900
Wire Wire Line
	15300 4800 15300 4900
Connection ~ 15300 4900
Entry Wire Line
	14300 4600 14400 4700
Entry Wire Line
	13850 4600 13950 4700
Entry Wire Line
	13250 4600 13350 4700
Entry Wire Line
	13600 4600 13700 4700
Wire Wire Line
	15800 4500 15800 4300
Wire Wire Line
	15800 4300 13250 4300
Wire Wire Line
	13250 4300 13250 4600
Wire Wire Line
	13600 4600 13600 4350
Wire Wire Line
	13600 4350 15550 4350
Wire Wire Line
	15550 4350 15550 4500
Wire Wire Line
	15300 4500 15300 4400
Wire Wire Line
	15300 4400 13850 4400
Wire Wire Line
	13850 4400 13850 4600
Wire Wire Line
	14300 4600 14300 4450
Wire Wire Line
	14300 4450 15050 4450
Wire Wire Line
	15050 4450 15050 4500
Text Label 13250 4600 1    60   ~ 0
An0
Text Label 13600 4600 1    60   ~ 0
An1
Text Label 13850 4600 1    60   ~ 0
An2
Text Label 14300 4600 1    60   ~ 0
An3
$Comp
L C C11
U 1 1 59B6F3D9
P 6750 1100
F 0 "C11" H 6775 1200 50  0000 L CNN
F 1 "100n" H 6775 1000 50  0000 L CNN
F 2 "Discret:C1V8" H 6788 950 50  0001 C CNN
F 3 "" H 6750 1100 50  0001 C CNN
	1    6750 1100
	1    0    0    -1  
$EndComp
$Comp
L C C12
U 1 1 59B6F8B5
P 7000 1100
F 0 "C12" H 7025 1200 50  0000 L CNN
F 1 "100n" H 7025 1000 50  0000 L CNN
F 2 "Discret:C1V8" H 7038 950 50  0001 C CNN
F 3 "" H 7000 1100 50  0001 C CNN
	1    7000 1100
	1    0    0    -1  
$EndComp
$Comp
L C C13
U 1 1 59B6F9B2
P 7250 1100
F 0 "C13" H 7275 1200 50  0000 L CNN
F 1 "100n" H 7275 1000 50  0000 L CNN
F 2 "Discret:C1V8" H 7288 950 50  0001 C CNN
F 3 "" H 7250 1100 50  0001 C CNN
	1    7250 1100
	1    0    0    -1  
$EndComp
$Comp
L C C14
U 1 1 59B6FAB2
P 7500 1100
F 0 "C14" H 7525 1200 50  0000 L CNN
F 1 "100n" H 7525 1000 50  0000 L CNN
F 2 "Discret:C1V8" H 7538 950 50  0001 C CNN
F 3 "" H 7500 1100 50  0001 C CNN
	1    7500 1100
	1    0    0    -1  
$EndComp
$Comp
L GND #PWR026
U 1 1 59B701D8
P 7100 1400
F 0 "#PWR026" H 7100 1150 50  0001 C CNN
F 1 "GND" H 7100 1250 50  0000 C CNN
F 2 "" H 7100 1400 50  0001 C CNN
F 3 "" H 7100 1400 50  0001 C CNN
	1    7100 1400
	1    0    0    -1  
$EndComp
Wire Wire Line
	6750 1250 6750 1350
Wire Wire Line
	6750 1350 7500 1350
Wire Wire Line
	7100 1350 7100 1400
Wire Wire Line
	7500 1350 7500 1250
Connection ~ 7100 1350
Wire Wire Line
	7250 1250 7250 1350
Connection ~ 7250 1350
Wire Wire Line
	7000 1250 7000 1350
Connection ~ 7000 1350
Wire Wire Line
	6750 950  6750 850 
Wire Wire Line
	6750 850  7800 850 
Wire Wire Line
	7800 850  7800 1100
Wire Wire Line
	7500 950  7500 850 
Connection ~ 7500 850 
Wire Wire Line
	7250 950  7250 850 
Connection ~ 7250 850 
Wire Wire Line
	7000 950  7000 850 
Connection ~ 7000 850 
NoConn ~ 11200 2950
NoConn ~ 11400 2950
NoConn ~ 11500 2950
Wire Wire Line
	9150 3300 8900 3300
Wire Wire Line
	9200 2800 8900 2800
$Comp
L GND #PWR027
U 1 1 59B789FB
P 9200 3100
F 0 "#PWR027" H 9200 2850 50  0001 C CNN
F 1 "GND" H 9200 2950 50  0000 C CNN
F 2 "" H 9200 3100 50  0001 C CNN
F 3 "" H 9200 3100 50  0001 C CNN
	1    9200 3100
	0    -1   -1   0   
$EndComp
Wire Wire Line
	9200 3100 8900 3100
$Comp
L GND #PWR028
U 1 1 59B78D8F
P 9150 3600
F 0 "#PWR028" H 9150 3350 50  0001 C CNN
F 1 "GND" H 9150 3450 50  0000 C CNN
F 2 "" H 9150 3600 50  0001 C CNN
F 3 "" H 9150 3600 50  0001 C CNN
	1    9150 3600
	0    -1   -1   0   
$EndComp
Wire Wire Line
	9150 3600 8900 3600
$Comp
L C C16
U 1 1 59B79177
P 9100 2450
F 0 "C16" H 9125 2550 50  0000 L CNN
F 1 "100n" H 9125 2350 50  0000 L CNN
F 2 "Discret:C1V8" H 9138 2300 50  0001 C CNN
F 3 "" H 9100 2450 50  0001 C CNN
	1    9100 2450
	1    0    0    -1  
$EndComp
$Comp
L C C17
U 1 1 59B79347
P 9700 2450
F 0 "C17" H 9725 2550 50  0000 L CNN
F 1 "100n" H 9725 2350 50  0000 L CNN
F 2 "Discret:C1V8" H 9738 2300 50  0001 C CNN
F 3 "" H 9700 2450 50  0001 C CNN
	1    9700 2450
	1    0    0    -1  
$EndComp
Wire Wire Line
	9000 2150 9000 2800
Connection ~ 9000 2800
Wire Wire Line
	9100 2600 9100 2650
Wire Wire Line
	9100 2650 9800 2650
Wire Wire Line
	9700 2650 9700 2600
$Comp
L GND #PWR029
U 1 1 59B79C3A
P 9800 2650
F 0 "#PWR029" H 9800 2400 50  0001 C CNN
F 1 "GND" H 9800 2500 50  0000 C CNN
F 2 "" H 9800 2650 50  0001 C CNN
F 3 "" H 9800 2650 50  0001 C CNN
	1    9800 2650
	1    0    0    -1  
$EndComp
Connection ~ 9700 2650
$Comp
L R R2
U 1 1 59B79FE4
P 10650 3300
F 0 "R2" V 10730 3300 50  0000 C CNN
F 1 "49.9" V 10650 3300 50  0000 C CNN
F 2 "Discret:CP4" V 10580 3300 50  0001 C CNN
F 3 "" H 10650 3300 50  0001 C CNN
	1    10650 3300
	1    0    0    -1  
$EndComp
$Comp
L R R3
U 1 1 59B7A6E0
P 11000 3300
F 0 "R3" V 11080 3300 50  0000 C CNN
F 1 "49.9" V 11000 3300 50  0000 C CNN
F 2 "Discret:CP4" V 10930 3300 50  0001 C CNN
F 3 "" H 11000 3300 50  0001 C CNN
	1    11000 3300
	1    0    0    -1  
$EndComp
$Comp
L R R4
U 1 1 59B7A7FD
P 11250 3300
F 0 "R4" V 11330 3300 50  0000 C CNN
F 1 "49.9" V 11250 3300 50  0000 C CNN
F 2 "Discret:CP4" V 11180 3300 50  0001 C CNN
F 3 "" H 11250 3300 50  0001 C CNN
	1    11250 3300
	1    0    0    -1  
$EndComp
$Comp
L R R5
U 1 1 59B7A919
P 11700 3300
F 0 "R5" V 11780 3300 50  0000 C CNN
F 1 "49.9" V 11700 3300 50  0000 C CNN
F 2 "Discret:CP4" V 11630 3300 50  0001 C CNN
F 3 "" H 11700 3300 50  0001 C CNN
	1    11700 3300
	1    0    0    -1  
$EndComp
$Comp
L C C18
U 1 1 59B7AA38
P 10900 3700
F 0 "C18" H 10925 3800 50  0000 L CNN
F 1 "100n" H 10925 3600 50  0000 L CNN
F 2 "Discret:C1V8" H 10938 3550 50  0001 C CNN
F 3 "" H 10900 3700 50  0001 C CNN
	1    10900 3700
	1    0    0    -1  
$EndComp
$Comp
L C C19
U 1 1 59B7ABAE
P 11300 3700
F 0 "C19" H 11325 3800 50  0000 L CNN
F 1 "100n" H 11325 3600 50  0000 L CNN
F 2 "Discret:C1V8" H 11338 3550 50  0001 C CNN
F 3 "" H 11300 3700 50  0001 C CNN
	1    11300 3700
	1    0    0    -1  
$EndComp
Wire Wire Line
	11000 3500 11000 3450
Wire Wire Line
	10900 2950 10900 3550
Wire Wire Line
	11300 3550 11300 3500
Wire Wire Line
	10550 3850 11300 3850
$Comp
L GND #PWR030
U 1 1 59B7BC5A
P 10550 3700
F 0 "#PWR030" H 10550 3450 50  0001 C CNN
F 1 "GND" H 10550 3550 50  0000 C CNN
F 2 "" H 10550 3700 50  0001 C CNN
F 3 "" H 10550 3700 50  0001 C CNN
	1    10550 3700
	-1   0    0    1   
$EndComp
Wire Wire Line
	10550 3700 10550 3850
Connection ~ 10900 3850
Text GLabel 9600 3350 2    60   Input ~ 0
ETH1
Text GLabel 9600 3500 2    60   Input ~ 0
ETH3
Text GLabel 9600 2900 2    60   Input ~ 0
ETH4
Text GLabel 9600 3050 2    60   Input ~ 0
ETH6
Wire Wire Line
	9100 2150 9100 2300
Wire Wire Line
	9700 2150 9700 2300
Wire Wire Line
	11000 2950 11000 3150
Wire Wire Line
	11100 3100 11500 3100
Wire Wire Line
	11100 3100 11100 2950
Wire Wire Line
	11300 3050 11700 3050
Wire Wire Line
	11300 3050 11300 2950
Wire Wire Line
	8900 3400 9500 3400
Wire Wire Line
	10650 3500 11000 3500
Connection ~ 10900 3500
Wire Wire Line
	10650 3500 10650 3450
Wire Wire Line
	10650 2950 10650 3150
Wire Wire Line
	10650 3100 10800 3100
Wire Wire Line
	10800 3100 10800 2950
Wire Wire Line
	11250 3100 11250 3150
Wire Wire Line
	11250 3500 11700 3500
Wire Wire Line
	11250 3500 11250 3450
Connection ~ 11300 3500
Wire Wire Line
	9600 3500 8900 3500
Wire Wire Line
	9600 2900 8900 2900
Wire Wire Line
	8900 3000 9500 3000
Wire Wire Line
	9500 3000 9500 3050
Wire Wire Line
	9500 3050 9600 3050
Wire Wire Line
	9600 3350 9500 3350
Wire Wire Line
	9500 3350 9500 3400
Text GLabel 10650 2950 1    60   Input ~ 0
ETH1
Connection ~ 10650 3100
Text GLabel 11150 3400 3    60   Input ~ 0
ETH3
Wire Wire Line
	11150 3400 11150 3150
Wire Wire Line
	11150 3150 11050 3150
Wire Wire Line
	11050 3150 11050 3100
Wire Wire Line
	11050 3100 11000 3100
Connection ~ 11000 3100
Wire Wire Line
	11700 2950 11700 3150
Wire Wire Line
	11700 3500 11700 3450
Text GLabel 11500 3200 3    60   Input ~ 0
ETH4
Wire Wire Line
	11500 3100 11500 3200
Connection ~ 11250 3100
Text GLabel 11700 2950 1    60   Input ~ 0
ETH6
Connection ~ 11700 3050
$Comp
L GND #PWR031
U 1 1 59B89B81
P 1950 2250
F 0 "#PWR031" H 1950 2000 50  0001 C CNN
F 1 "GND" H 1950 2100 50  0000 C CNN
F 2 "" H 1950 2250 50  0001 C CNN
F 3 "" H 1950 2250 50  0001 C CNN
	1    1950 2250
	1    0    0    -1  
$EndComp
Wire Wire Line
	1650 1800 2550 1800
Text GLabel 2150 1450 0    60   Input ~ 0
vdd
Wire Wire Line
	2150 1450 2550 1450
Text GLabel 6600 2350 0    60   Input ~ 0
ENVREG
Wire Wire Line
	6600 2350 6800 2350
Wire Wire Line
	6800 2350 6800 2500
$Comp
L R R1
U 1 1 59B99F65
P 9300 3800
F 0 "R1" V 9380 3800 50  0000 C CNN
F 1 "2.26k" V 9300 3800 50  0000 C CNN
F 2 "Discret:CP4" V 9230 3800 50  0001 C CNN
F 3 "" H 9300 3800 50  0001 C CNN
	1    9300 3800
	0    1    1    0   
$EndComp
Wire Wire Line
	9150 3800 8900 3800
Wire Wire Line
	9450 3800 9500 3800
Wire Wire Line
	9500 3800 9500 3700
Wire Wire Line
	9500 3700 9050 3700
Wire Wire Line
	9050 3700 9050 3600
Connection ~ 9050 3600
$Comp
L GND #PWR032
U 1 1 59B9BCD3
P 8000 2400
F 0 "#PWR032" H 8000 2150 50  0001 C CNN
F 1 "GND" H 8000 2250 50  0000 C CNN
F 2 "" H 8000 2400 50  0001 C CNN
F 3 "" H 8000 2400 50  0001 C CNN
	1    8000 2400
	1    0    0    -1  
$EndComp
Wire Wire Line
	8000 2000 7800 2000
Wire Wire Line
	7800 2000 7800 2500
Wire Wire Line
	7700 8300 7700 8400
Wire Wire Line
	7700 8400 7450 8400
Connection ~ 7450 8400
Wire Wire Line
	7100 2400 7650 2400
Connection ~ 7200 2400
Wire Wire Line
	7300 2500 7300 2400
Connection ~ 7300 2400
NoConn ~ 6700 8300
$Comp
L C C2
U 1 1 59BA0175
P 1650 2000
F 0 "C2" H 1675 2100 50  0000 L CNN
F 1 "0.1u" H 1675 1900 50  0000 L CNN
F 2 "Discret:C1V8" H 1688 1850 50  0001 C CNN
F 3 "" H 1650 2000 50  0001 C CNN
	1    1650 2000
	1    0    0    -1  
$EndComp
Wire Wire Line
	1650 1800 1650 1850
Wire Wire Line
	1650 2150 1650 2200
Wire Wire Line
	1650 2200 2050 2200
$Comp
L GND #PWR033
U 1 1 59BA22B5
P 6850 9850
F 0 "#PWR033" H 6850 9600 50  0001 C CNN
F 1 "GND" H 6850 9700 50  0000 C CNN
F 2 "" H 6850 9850 50  0001 C CNN
F 3 "" H 6850 9850 50  0001 C CNN
	1    6850 9850
	0    -1   -1   0   
$EndComp
Entry Wire Line
	12650 5900 12750 6000
Entry Wire Line
	12650 6100 12750 6200
Wire Wire Line
	12750 6200 13100 6200
Wire Wire Line
	12750 6000 13100 6000
Text Label 12750 6000 0    60   ~ 0
sda
Text Label 12750 6200 0    60   ~ 0
scl
Text GLabel 13100 6000 2    60   Input ~ 0
sda
Text GLabel 13100 6200 2    60   Input ~ 0
scl
Text GLabel 5550 9050 0    60   Input ~ 0
sda
Text GLabel 5550 9200 0    60   Input ~ 0
scl
$Comp
L GND #PWR034
U 1 1 59BA543B
P 5550 9850
F 0 "#PWR034" H 5550 9600 50  0001 C CNN
F 1 "GND" H 5550 9700 50  0000 C CNN
F 2 "" H 5550 9850 50  0001 C CNN
F 3 "" H 5550 9850 50  0001 C CNN
	1    5550 9850
	0    1    1    0   
$EndComp
$Comp
L Conn_02x07_Odd_Even j1
U 1 1 59BA5AF6
P 6150 9350
F 0 "j1" H 6200 9750 50  0000 C CNN
F 1 "Port_OUT" H 6200 8950 50  0000 C CNN
F 2 "Pin_Headers:Pin_Header_Straight_2x07" H 6150 9350 50  0001 C CNN
F 3 "" H 6150 9350 50  0001 C CNN
	1    6150 9350
	1    0    0    -1  
$EndComp
Wire Wire Line
	6850 8850 6550 8850
Wire Wire Line
	6550 8850 6550 9050
Wire Wire Line
	6550 9050 6450 9050
Wire Wire Line
	6850 9050 6600 9050
Wire Wire Line
	6600 9050 6600 9150
Wire Wire Line
	6600 9150 6450 9150
Wire Wire Line
	6450 9250 6650 9250
Wire Wire Line
	6650 9250 6650 9200
Wire Wire Line
	6650 9200 6850 9200
Wire Wire Line
	6850 9350 6450 9350
Wire Wire Line
	6850 9500 6650 9500
Wire Wire Line
	6650 9500 6650 9450
Wire Wire Line
	6650 9450 6450 9450
Wire Wire Line
	6450 9550 6600 9550
Wire Wire Line
	6600 9550 6600 9650
Wire Wire Line
	6600 9650 6850 9650
Wire Wire Line
	6450 9650 6550 9650
Wire Wire Line
	6550 9650 6550 9850
Wire Wire Line
	6550 9850 6850 9850
Wire Wire Line
	5950 9050 5800 9050
Wire Wire Line
	5800 9050 5800 8850
Wire Wire Line
	5800 8850 5550 8850
Wire Wire Line
	5550 9050 5750 9050
Wire Wire Line
	5750 9050 5750 9150
Wire Wire Line
	5750 9150 5950 9150
Wire Wire Line
	5950 9250 5700 9250
Wire Wire Line
	5700 9250 5700 9200
Wire Wire Line
	5700 9200 5550 9200
Wire Wire Line
	5550 9350 5950 9350
Wire Wire Line
	5550 9500 5700 9500
Wire Wire Line
	5700 9500 5700 9450
Wire Wire Line
	5700 9450 5950 9450
Wire Wire Line
	5950 9550 5750 9550
Wire Wire Line
	5750 9550 5750 9650
Wire Wire Line
	5750 9650 5550 9650
Wire Wire Line
	5950 9650 5800 9650
Wire Wire Line
	5800 9650 5800 9850
Wire Wire Line
	5800 9850 5550 9850
Wire Wire Line
	12350 2900 12350 3150
Wire Wire Line
	5700 5500 5300 5500
Connection ~ 7400 2400
Wire Wire Line
	7400 2400 7400 2500
$Comp
L VIN #PWR035
U 1 1 59BAEBE4
P 1450 9800
F 0 "#PWR035" H 1450 9890 20  0001 C CNN
F 1 "VIN" H 1450 9890 30  0000 C CNN
F 2 "" H 1450 9800 60  0000 C CNN
F 3 "" H 1450 9800 60  0000 C CNN
	1    1450 9800
	1    0    0    -1  
$EndComp
Wire Wire Line
	1450 9800 1450 9900
Connection ~ 1450 9900
$Comp
L JUMPER_3X1 JP1
U 1 1 59BB031A
P 7250 2250
F 0 "JP1" H 7200 2400 60  0000 C CNN
F 1 "JUMP" V 7300 2050 60  0000 C CNN
F 2 "Pin_Headers:Pin_Header_Straight_1x03" H 7250 2250 60  0001 C CNN
F 3 "" H 7250 2250 60  0001 C CNN
	1    7250 2250
	0    1    1    0   
$EndComp
Wire Wire Line
	7250 2350 7250 2400
Connection ~ 7250 2400
Wire Wire Line
	7350 1900 7300 1900
Wire Wire Line
	7300 1900 7300 2050
Wire Wire Line
	7100 1900 7200 1900
Wire Wire Line
	7200 1900 7200 2050
Wire Wire Line
	7100 2400 7100 2500
$Comp
L Barrel_Jack J1
U 1 1 59C26ED6
P 950 10000
F 0 "J1" H 950 10210 50  0000 C CNN
F 1 "Barrel_Jack" H 950 9825 50  0000 C CNN
F 2 "Connectors:BARREL_JACK" H 1000 9960 50  0001 C CNN
F 3 "" H 1000 9960 50  0001 C CNN
	1    950  10000
	1    0    0    -1  
$EndComp
$Comp
L C C15
U 1 1 59C5B001
P 8000 2200
F 0 "C15" H 8025 2300 50  0000 L CNN
F 1 "0.1u" H 8025 2100 50  0000 L CNN
F 2 "Discret:C1V8" H 8038 2050 50  0001 C CNN
F 3 "" H 8000 2200 50  0001 C CNN
	1    8000 2200
	1    0    0    -1  
$EndComp
Wire Wire Line
	8000 2400 8000 2350
Wire Wire Line
	8000 2050 8000 2000
$Comp
L C C4
U 1 1 59C5E5F9
P 2050 2000
F 0 "C4" H 2075 2100 50  0000 L CNN
F 1 "0.1u" H 2075 1900 50  0000 L CNN
F 2 "Discret:C1V8" H 2088 1850 50  0001 C CNN
F 3 "" H 2050 2000 50  0001 C CNN
	1    2050 2000
	1    0    0    -1  
$EndComp
Wire Wire Line
	1950 2200 1950 2250
Wire Wire Line
	2050 2200 2050 2150
Connection ~ 1950 2200
Wire Wire Line
	2050 1850 2050 1800
Connection ~ 2050 1800
$Comp
L C C3
U 1 1 59C6647C
P 1850 10200
F 0 "C3" H 1875 10300 50  0000 L CNN
F 1 "10u" H 1875 10100 50  0000 L CNN
F 2 "Discret:C1V8" H 1888 10050 50  0001 C CNN
F 3 "" H 1850 10200 50  0001 C CNN
	1    1850 10200
	1    0    0    -1  
$EndComp
Wire Wire Line
	1250 9900 2350 9900
Wire Wire Line
	1850 10050 1850 9900
Connection ~ 1850 9900
Wire Wire Line
	1850 10350 1850 10900
$Comp
L C C5
U 1 1 59C68517
P 3300 10100
F 0 "C5" H 3325 10200 50  0000 L CNN
F 1 "10u" H 3325 10000 50  0000 L CNN
F 2 "Discret:C1V8" H 3338 9950 50  0001 C CNN
F 3 "" H 3300 10100 50  0001 C CNN
	1    3300 10100
	1    0    0    -1  
$EndComp
$Comp
L C C6
U 1 1 59C68BD8
P 3300 10700
F 0 "C6" H 3325 10800 50  0000 L CNN
F 1 "10u" H 3325 10600 50  0000 L CNN
F 2 "Discret:C1V8" H 3338 10550 50  0001 C CNN
F 3 "" H 3300 10700 50  0001 C CNN
	1    3300 10700
	1    0    0    -1  
$EndComp
Wire Wire Line
	3300 10550 3300 10500
Connection ~ 3300 10500
Wire Wire Line
	3300 10850 3300 10900
Connection ~ 3300 10900
Wire Wire Line
	3300 10250 3300 10300
Connection ~ 3300 10300
Wire Wire Line
	3300 9950 3300 9900
Connection ~ 3300 9900
Wire Wire Line
	9850 5300 9850 5450
Wire Wire Line
	9850 5450 10200 5450
Wire Wire Line
	10200 5300 10150 5300
Wire Wire Line
	5350 3400 5350 3350
Wire Wire Line
	5350 3050 5350 3000
Connection ~ 5350 3000
Wire Wire Line
	9000 2150 9700 2150
Connection ~ 9100 2150
$Comp
L Conn_02x05_Odd_Even J5
U 1 1 59C79C14
P 10500 9150
F 0 "J5" H 10550 9450 50  0000 C CNN
F 1 "Port_B" H 10550 8850 50  0000 C CNN
F 2 "Pin_Headers:Pin_Header_Straight_2x05" H 10500 9150 50  0001 C CNN
F 3 "" H 10500 9150 50  0001 C CNN
	1    10500 9150
	1    0    0    -1  
$EndComp
Wire Wire Line
	10150 8900 10150 8950
Wire Wire Line
	10150 8950 10300 8950
Wire Wire Line
	10150 9650 10150 9250
Wire Wire Line
	10150 9250 10300 9250
Wire Wire Line
	10300 9150 10050 9150
Wire Wire Line
	10050 9150 10050 9400
Wire Wire Line
	10050 9400 9600 9400
Wire Wire Line
	10300 9050 9850 9050
Wire Wire Line
	9850 9050 9850 9150
Wire Wire Line
	9850 9150 9600 9150
Wire Wire Line
	11250 8950 10800 8950
Wire Wire Line
	10800 9050 11200 9050
Wire Wire Line
	11200 9050 11200 10200
Wire Wire Line
	11200 10200 11000 10200
Wire Wire Line
	10800 9150 11150 9150
Wire Wire Line
	11150 9150 11150 10150
Wire Wire Line
	11150 10150 10700 10150
Wire Wire Line
	10400 10100 11100 10100
Wire Wire Line
	11100 10100 11100 9250
Wire Wire Line
	11100 9250 10800 9250
$Comp
L GND #PWR036
U 1 1 59C7C86C
P 10800 9650
F 0 "#PWR036" H 10800 9400 50  0001 C CNN
F 1 "GND" H 10800 9500 50  0000 C CNN
F 2 "" H 10800 9650 50  0001 C CNN
F 3 "" H 10800 9650 50  0001 C CNN
	1    10800 9650
	1    0    0    -1  
$EndComp
Wire Wire Line
	10800 9650 11050 9650
Wire Wire Line
	11050 9650 11050 9350
Wire Wire Line
	11050 9350 10800 9350
Wire Wire Line
	10300 9350 10200 9350
Wire Wire Line
	10200 9350 10200 9650
Wire Wire Line
	10200 9650 10300 9650
Text GLabel 7800 1100 3    60   Input ~ 0
vdd-3v
Text GLabel 7650 2200 1    60   Input ~ 0
vdd-3v
Wire Wire Line
	7650 2400 7650 2200
Connection ~ 7500 2400
Wire Wire Line
	14800 2900 14800 3150
$Comp
L +5V #PWR037
U 1 1 59CA2187
P 3900 10100
F 0 "#PWR037" H 3900 9950 50  0001 C CNN
F 1 "+5V" H 3900 10240 50  0000 C CNN
F 2 "" H 3900 10100 50  0001 C CNN
F 3 "" H 3900 10100 50  0001 C CNN
	1    3900 10100
	-1   0    0    1   
$EndComp
$Comp
L +5V #PWR038
U 1 1 59CA2BDE
P 14950 2900
F 0 "#PWR038" H 14950 2750 50  0001 C CNN
F 1 "+5V" H 14950 3040 50  0000 C CNN
F 2 "" H 14950 2900 50  0001 C CNN
F 3 "" H 14950 2900 50  0001 C CNN
	1    14950 2900
	1    0    0    -1  
$EndComp
Wire Wire Line
	14950 2900 14800 2900
$Comp
L +5V #PWR039
U 1 1 59CA464B
P 12750 2400
F 0 "#PWR039" H 12750 2250 50  0001 C CNN
F 1 "+5V" H 12750 2540 50  0000 C CNN
F 2 "" H 12750 2400 50  0001 C CNN
F 3 "" H 12750 2400 50  0001 C CNN
	1    12750 2400
	-1   0    0    1   
$EndComp
Wire Wire Line
	15100 7450 12850 7450
Wire Wire Line
	12850 7450 12850 8950
Wire Wire Line
	12850 8950 15250 8950
Connection ~ 14450 8950
Wire Wire Line
	13800 8950 13750 8950
Connection ~ 13750 8950
Connection ~ 13150 8950
Connection ~ 13150 7450
Connection ~ 13800 7450
Connection ~ 14450 7450
$Comp
L +3.3V #PWR040
U 1 1 59CA67E3
P 15250 8900
F 0 "#PWR040" H 15250 8750 50  0001 C CNN
F 1 "+3.3V" H 15250 9040 50  0000 C CNN
F 2 "" H 15250 8900 50  0001 C CNN
F 3 "" H 15250 8900 50  0001 C CNN
	1    15250 8900
	1    0    0    -1  
$EndComp
Wire Wire Line
	15250 8950 15250 8900
Connection ~ 15100 8950
$Comp
L +3.3V #PWR041
U 1 1 59CA6CD7
P 3900 10750
F 0 "#PWR041" H 3900 10600 50  0001 C CNN
F 1 "+3.3V" H 3900 10890 50  0000 C CNN
F 2 "" H 3900 10750 50  0001 C CNN
F 3 "" H 3900 10750 50  0001 C CNN
	1    3900 10750
	-1   0    0    1   
$EndComp
$Comp
L +3.3V #PWR042
U 1 1 59CA79C2
P 7350 1900
F 0 "#PWR042" H 7350 1750 50  0001 C CNN
F 1 "+3.3V" H 7350 2040 50  0000 C CNN
F 2 "" H 7350 1900 50  0001 C CNN
F 3 "" H 7350 1900 50  0001 C CNN
	1    7350 1900
	0    1    1    0   
$EndComp
$Comp
L +3.3V #PWR043
U 1 1 59CA7CB6
P 9200 2800
F 0 "#PWR043" H 9200 2650 50  0001 C CNN
F 1 "+3.3V" H 9200 2940 50  0000 C CNN
F 2 "" H 9200 2800 50  0001 C CNN
F 3 "" H 9200 2800 50  0001 C CNN
	1    9200 2800
	0    1    1    0   
$EndComp
$Comp
L +3.3V #PWR044
U 1 1 59CA7E31
P 9150 3300
F 0 "#PWR044" H 9150 3150 50  0001 C CNN
F 1 "+3.3V" H 9150 3440 50  0000 C CNN
F 2 "" H 9150 3300 50  0001 C CNN
F 3 "" H 9150 3300 50  0001 C CNN
	1    9150 3300
	0    1    1    0   
$EndComp
$Comp
L +3.3V #PWR045
U 1 1 59CA8009
P 5100 2050
F 0 "#PWR045" H 5100 1900 50  0001 C CNN
F 1 "+3.3V" H 5100 2190 50  0000 C CNN
F 2 "" H 5100 2050 50  0001 C CNN
F 3 "" H 5100 2050 50  0001 C CNN
	1    5100 2050
	-1   0    0    1   
$EndComp
$Comp
L +3.3V #PWR046
U 1 1 59CA8352
P 3050 4150
F 0 "#PWR046" H 3050 4000 50  0001 C CNN
F 1 "+3.3V" H 3050 4290 50  0000 C CNN
F 2 "" H 3050 4150 50  0001 C CNN
F 3 "" H 3050 4150 50  0001 C CNN
	1    3050 4150
	-1   0    0    1   
$EndComp
$Comp
L +3.3V #PWR047
U 1 1 59CA8471
P 3050 5750
F 0 "#PWR047" H 3050 5600 50  0001 C CNN
F 1 "+3.3V" H 3050 5890 50  0000 C CNN
F 2 "" H 3050 5750 50  0001 C CNN
F 3 "" H 3050 5750 50  0001 C CNN
	1    3050 5750
	-1   0    0    1   
$EndComp
$Comp
L +3.3V #PWR048
U 1 1 59CA8815
P 3050 7550
F 0 "#PWR048" H 3050 7400 50  0001 C CNN
F 1 "+3.3V" H 3050 7690 50  0000 C CNN
F 2 "" H 3050 7550 50  0001 C CNN
F 3 "" H 3050 7550 50  0001 C CNN
	1    3050 7550
	-1   0    0    1   
$EndComp
$Comp
L +3.3V #PWR049
U 1 1 59CA89ED
P 6850 8850
F 0 "#PWR049" H 6850 8700 50  0001 C CNN
F 1 "+3.3V" H 6850 8990 50  0000 C CNN
F 2 "" H 6850 8850 50  0001 C CNN
F 3 "" H 6850 8850 50  0001 C CNN
	1    6850 8850
	0    1    1    0   
$EndComp
$Comp
L +5V #PWR050
U 1 1 59CA8BC5
P 5550 8850
F 0 "#PWR050" H 5550 8700 50  0001 C CNN
F 1 "+5V" H 5550 8990 50  0000 C CNN
F 2 "" H 5550 8850 50  0001 C CNN
F 3 "" H 5550 8850 50  0001 C CNN
	1    5550 8850
	0    -1   -1   0   
$EndComp
$Comp
L +3.3V #PWR051
U 1 1 59CABB9D
P 10300 9650
F 0 "#PWR051" H 10300 9500 50  0001 C CNN
F 1 "+3.3V" H 10300 9790 50  0000 C CNN
F 2 "" H 10300 9650 50  0001 C CNN
F 3 "" H 10300 9650 50  0001 C CNN
	1    10300 9650
	0    1    1    0   
$EndComp
$Comp
L +3.3V #PWR052
U 1 1 59CABF42
P 11050 6950
F 0 "#PWR052" H 11050 6800 50  0001 C CNN
F 1 "+3.3V" H 11050 7090 50  0000 C CNN
F 2 "" H 11050 6950 50  0001 C CNN
F 3 "" H 11050 6950 50  0001 C CNN
	1    11050 6950
	1    0    0    -1  
$EndComp
$Comp
L +3.3V #PWR053
U 1 1 59CAC237
P 12050 7400
F 0 "#PWR053" H 12050 7250 50  0001 C CNN
F 1 "+3.3V" H 12050 7540 50  0000 C CNN
F 2 "" H 12050 7400 50  0001 C CNN
F 3 "" H 12050 7400 50  0001 C CNN
	1    12050 7400
	-1   0    0    1   
$EndComp
$Comp
L +5V #PWR054
U 1 1 59CAF7AA
P 11050 4950
F 0 "#PWR054" H 11050 4800 50  0001 C CNN
F 1 "+5V" H 11050 5090 50  0000 C CNN
F 2 "" H 11050 4950 50  0001 C CNN
F 3 "" H 11050 4950 50  0001 C CNN
	1    11050 4950
	1    0    0    -1  
$EndComp
$Comp
L +3.3V #PWR055
U 1 1 59CAFEE9
P 14900 5250
F 0 "#PWR055" H 14900 5100 50  0001 C CNN
F 1 "+3.3V" H 14900 5390 50  0000 C CNN
F 2 "" H 14900 5250 50  0001 C CNN
F 3 "" H 14900 5250 50  0001 C CNN
	1    14900 5250
	1    0    0    -1  
$EndComp
$Comp
L +3.3V #PWR056
U 1 1 59CB011C
P 14350 5250
F 0 "#PWR056" H 14350 5100 50  0001 C CNN
F 1 "+3.3V" H 14350 5390 50  0000 C CNN
F 2 "" H 14350 5250 50  0001 C CNN
F 3 "" H 14350 5250 50  0001 C CNN
	1    14350 5250
	1    0    0    -1  
$EndComp
$Comp
L +3.3V #PWR057
U 1 1 59CB023B
P 13800 5250
F 0 "#PWR057" H 13800 5100 50  0001 C CNN
F 1 "+3.3V" H 13800 5390 50  0000 C CNN
F 2 "" H 13800 5250 50  0001 C CNN
F 3 "" H 13800 5250 50  0001 C CNN
	1    13800 5250
	1    0    0    -1  
$EndComp
$Comp
L +3.3V #PWR058
U 1 1 59CB035A
P 13250 5250
F 0 "#PWR058" H 13250 5100 50  0001 C CNN
F 1 "+3.3V" H 13250 5390 50  0000 C CNN
F 2 "" H 13250 5250 50  0001 C CNN
F 3 "" H 13250 5250 50  0001 C CNN
	1    13250 5250
	1    0    0    -1  
$EndComp
$Comp
L +5V #PWR059
U 1 1 59CB2584
P 14450 2150
F 0 "#PWR059" H 14450 2000 50  0001 C CNN
F 1 "+5V" H 14450 2290 50  0000 C CNN
F 2 "" H 14450 2150 50  0001 C CNN
F 3 "" H 14450 2150 50  0001 C CNN
	1    14450 2150
	-1   0    0    1   
$EndComp
NoConn ~ 11750 2200
NoConn ~ 11750 2100
NoConn ~ 10550 2100
NoConn ~ 10550 2200
$EndSCHEMATC
