M48
;DRILL file {KiCad 4.0.5+dfsg1-4} date Fri Sep 29 14:10:44 2017
;FORMAT={-:-/ absolute / inch / decimal}
FMAT,2
INCH,TZ
T1C0.016
T2C0.024
T3C0.030
T4C0.031
T5C0.032
T6C0.035
T7C0.039
T8C0.039
T9C0.040
T10C0.047
T11C0.047
T12C0.059
T13C0.098
%
G90
G05
M72
T1
X1.2Y-5.7
X1.24Y-6.06
X1.26Y-5.56
X1.36Y-5.74
X1.38Y-4.56
X1.4Y-3.82
X1.4Y-6.04
X1.46Y-5.76
X1.5Y-6.04
X1.52Y-3.16
X1.6Y-4.78
X1.66Y-4.56
X1.68Y-4.08
X1.7Y-5.8
X1.72Y-3.56
X1.78Y-4.78
X1.9Y-1.35
X2.02Y-4.76
X2.12Y-1.98
X2.15Y-1.6
X2.2Y-1.6
X2.26Y-4.76
X2.28Y-1.58
X2.34Y-5.3
X2.4Y-1.35
X2.4Y-4.4
X2.44Y-5.04
X2.46Y-5.78
X2.48Y-5.44
X2.62Y-6.
X2.64Y-5.7
X2.7Y-6.02
X2.74Y-5.68
X2.76Y-5.1
X2.8Y-1.6
X2.84Y-5.04
X2.86Y-5.7
X2.9Y-1.6
X2.9Y-6.
X2.96Y-5.74
X2.98Y-1.6
X2.98Y-6.02
X3.Y-4.84
X3.04Y-5.58
X3.06Y-5.3
X3.08Y-1.6
X3.08Y-3.18
X3.08Y-3.78
X3.1Y-3.52
X3.18Y-3.82
X3.28Y-4.6
X3.28Y-4.96
X3.32Y-4.94
X3.36Y-4.36
X3.36Y-4.44
X3.36Y-4.5
X3.36Y-4.7
X3.38Y-4.8
X3.4Y-5.94
X3.46Y-4.62
X3.46Y-5.14
X3.5Y-5.86
X3.52Y-3.26
X3.52Y-5.
X3.54Y-4.7
X3.58Y-3.38
X3.6Y-3.26
X3.6Y-4.04
X3.6Y-4.12
X3.62Y-3.12
X3.66Y-4.44
X3.7Y-5.
X3.7Y-5.2
X3.74Y-3.54
X3.74Y-3.58
X3.74Y-3.66
X3.75Y-3.8
X3.78Y-4.44
X3.78Y-4.66
X3.78Y-4.7
X3.78Y-5.48
X3.8Y-5.32
X3.82Y-3.26
X3.82Y-4.18
X3.82Y-4.24
X3.84Y-3.22
X3.84Y-3.76
X3.84Y-3.82
X3.84Y-3.88
X3.84Y-4.06
X3.84Y-4.54
X3.84Y-4.74
X3.84Y-4.94
X3.85Y-4.85
X3.88Y-4.72
X3.9Y-4.56
X3.92Y-3.88
X3.92Y-4.62
X3.92Y-4.8
X3.94Y-4.28
X3.96Y-4.12
X3.96Y-4.16
X3.96Y-4.34
X3.96Y-4.72
X3.98Y-4.28
X3.98Y-5.04
X4.Y-3.42
X4.Y-4.24
X4.Y-4.36
X4.Y-5.14
X4.02Y-3.98
X4.02Y-4.42
X4.02Y-4.66
X4.02Y-4.74
X4.04Y-3.42
X4.04Y-4.14
X4.04Y-4.46
X4.05Y-3.3
X4.06Y-3.44
X4.06Y-4.7
X4.06Y-4.8
X4.06Y-5.54
X4.08Y-3.22
X4.08Y-3.32
X4.08Y-3.84
X4.08Y-4.92
X4.08Y-5.14
X4.14Y-3.88
X4.14Y-3.92
X4.14Y-3.96
X4.14Y-4.2
X4.14Y-4.24
X4.14Y-4.28
X4.14Y-4.84
X4.15Y-3.8
X4.16Y-4.12
X4.16Y-4.16
X4.18Y-4.5
X4.2Y-3.8
X4.2Y-4.14
X4.2Y-4.96
X4.22Y-2.42
X4.22Y-3.98
X4.22Y-4.1
X4.22Y-4.88
X4.24Y-2.56
X4.24Y-2.72
X4.24Y-3.08
X4.24Y-4.32
X4.26Y-3.5
X4.28Y-2.96
X4.28Y-4.44
X4.28Y-6.02
X4.3Y-2.64
X4.3Y-3.85
X4.3Y-4.2
X4.3Y-4.24
X4.3Y-4.4
X4.32Y-3.06
X4.32Y-4.48
X4.34Y-2.32
X4.34Y-2.48
X4.34Y-2.88
X4.34Y-4.24
X4.35Y-3.75
X4.38Y-2.46
X4.4Y-1.42
X4.4Y-1.8
X4.4Y-3.76
X4.42Y-5.88
X4.44Y-3.16
X4.44Y-5.66
X4.46Y-5.82
X4.48Y-3.22
X4.48Y-4.36
X4.5Y-2.86
X4.5Y-4.38
X4.54Y-3.48
X4.56Y-4.36
X4.56Y-5.64
X4.58Y-4.42
X4.6Y-2.28
X4.65Y-1.55
X4.68Y-4.34
X4.7Y-4.22
X4.7Y-4.26
X4.72Y-2.38
X4.75Y-4.15
X4.76Y-4.72
X4.78Y-3.94
X4.78Y-4.6
X4.78Y-5.78
X4.8Y-2.16
X4.82Y-3.84
X4.84Y-2.16
X4.86Y-2.8
X4.86Y-3.84
X4.88Y-2.7
X4.88Y-2.74
X4.88Y-2.92
X4.88Y-4.4
X4.88Y-4.6
X4.88Y-4.72
X4.92Y-5.16
X4.94Y-3.52
X4.94Y-4.94
X4.96Y-2.38
X4.98Y-3.52
X5.Y-3.74
X5.Y-4.64
X5.02Y-4.16
X5.02Y-4.22
X5.04Y-4.6
X5.04Y-4.86
X5.06Y-3.48
X5.1Y-4.62
X5.1Y-4.84
X5.12Y-3.46
X5.14Y-4.06
X5.14Y-4.34
X5.14Y-5.8
X5.16Y-3.26
X5.16Y-3.46
X5.16Y-3.58
X5.16Y-3.62
X5.18Y-4.3
X5.2Y-1.22
X5.2Y-3.2
X5.2Y-4.08
X5.2Y-4.16
X5.2Y-4.2
X5.22Y-4.56
X5.22Y-4.76
X5.26Y-4.5
X5.26Y-4.7
X5.26Y-5.08
X5.32Y-4.
X5.32Y-4.6
X5.36Y-3.22
X5.36Y-3.56
X5.38Y-3.66
X5.4Y-2.14
X5.4Y-3.34
X5.42Y-3.38
X5.42Y-3.42
X5.42Y-3.5
X5.44Y-3.66
X5.48Y-1.16
X5.48Y-2.3
X5.5Y-1.66
X5.54Y-2.34
X5.56Y-3.52
X5.56Y-3.74
X5.58Y-4.36
X5.6Y-3.32
X5.66Y-5.32
X5.68Y-5.72
X5.7Y-4.06
X5.7Y-4.14
X5.8Y-0.98
X5.8Y-1.24
X5.8Y-1.3
X5.86Y-1.34
X5.9Y-4.22
X5.9Y-4.32
X5.92Y-1.02
X5.92Y-1.38
X5.92Y-2.88
X5.98Y-1.4
X6.Y-3.24
X6.Y-3.3
X6.Y-5.08
X6.04Y-3.36
X6.04Y-3.4
X6.04Y-3.96
X6.04Y-4.18
X6.12Y-4.38
X6.12Y-4.56
X6.16Y-3.6
X6.16Y-4.06
X6.18Y-3.44
X6.24Y-3.04
X6.28Y-3.72
X6.34Y-3.72
X6.38Y-3.9
X6.42Y-3.12
X6.46Y-1.02
X6.48Y-3.84
X6.5Y-3.2
X6.54Y-1.7
X6.56Y-1.28
X6.56Y-1.94
X6.58Y-1.58
X6.58Y-4.66
X6.6Y-1.42
X6.6Y-2.02
X6.6Y-4.58
X6.62Y-3.1
X6.64Y-3.62
X6.66Y-3.32
X6.66Y-4.04
X6.68Y-3.54
T2
X5.6Y-1.55
X5.6Y-1.65
X5.65Y-1.6
T3
X4.7Y-1.
X4.7Y-1.7
X4.75Y-4.15
X4.75Y-4.35
X4.8Y-1.3
T4
X3.6Y-5.2
X3.6Y-5.3
X3.6Y-5.4
X3.6Y-5.5
X3.9Y-5.2
X3.9Y-5.3
X3.9Y-5.4
X3.9Y-5.5
X4.5Y-5.1
X4.5Y-5.2
X4.5Y-5.3
X4.5Y-5.4
X4.8Y-5.1
X4.8Y-5.2
X4.8Y-5.3
X4.8Y-5.4
T5
X0.95Y-5.55
X1.Y-5.05
X1.1Y-5.05
X1.35Y-5.05
X1.35Y-5.55
X1.45Y-5.05
X1.5Y-3.55
X1.5Y-3.9
X1.55Y-4.25
X1.55Y-4.65
X1.6Y-3.55
X1.6Y-3.9
X1.65Y-2.9
X1.65Y-3.3
X1.65Y-5.55
X1.75Y-4.25
X1.75Y-4.65
X1.95Y-2.9
X1.95Y-3.3
X2.05Y-5.55
X2.25Y-2.9
X2.25Y-3.3
X2.3Y-5.55
X2.55Y-2.9
X2.55Y-3.3
X2.7Y-5.55
X2.85Y-2.9
X2.85Y-3.3
X2.95Y-5.55
X3.05Y-4.25
X3.05Y-4.65
X3.15Y-2.9
X3.15Y-3.3
X3.25Y-3.6
X3.25Y-3.7
X3.25Y-4.25
X3.25Y-4.65
X3.35Y-5.55
X3.45Y-2.9
X3.45Y-3.3
X3.5Y-4.3
X3.5Y-4.85
X3.6Y-3.6
X3.6Y-3.7
X3.6Y-4.3
X3.6Y-4.85
X3.75Y-2.9
X3.75Y-3.3
X4.Y-3.65
X4.1Y-3.65
X4.15Y-5.2
X4.25Y-5.2
X4.4Y-3.
X4.4Y-3.4
X4.55Y-3.65
X4.55Y-5.85
X4.55Y-5.95
X4.65Y-3.
X4.65Y-3.4
X4.65Y-3.65
X5.Y-4.
X5.Y-4.45
X5.Y-5.2
X5.Y-5.6
X5.Y-5.85
X5.Y-5.95
X5.05Y-2.05
X5.05Y-2.45
X5.1Y-3.15
X5.1Y-3.25
X5.1Y-4.
X5.1Y-4.45
X5.15Y-2.75
X5.15Y-2.85
X5.2Y-5.2
X5.2Y-5.6
X5.25Y-2.05
X5.25Y-2.45
X5.35Y-1.1
X5.45Y-4.85
X5.45Y-4.95
X5.45Y-5.3
X5.45Y-5.4
X5.5Y-3.15
X5.5Y-3.25
X5.55Y-2.05
X5.55Y-2.45
X5.6Y-5.85
X5.6Y-5.95
X5.65Y-2.75
X5.65Y-2.85
X5.75Y-1.1
X5.75Y-2.05
X5.75Y-2.45
X5.85Y-3.15
X5.85Y-3.25
X5.95Y-5.85
X5.95Y-5.95
X6.05Y-1.5
X6.05Y-1.65
X6.45Y-1.5
X6.45Y-1.65
T6
X6.Y-2.1
X6.Y-2.2
X6.Y-2.3
X6.Y-2.4
X6.1Y-2.15
X6.1Y-2.25
X6.1Y-2.35
X6.1Y-2.45
X6.5098Y-2.028
X6.5098Y-2.128
X6.5098Y-2.45
X6.5098Y-2.55
T8
X1.6Y-2.7
X1.7Y-2.7
X1.7114Y-4.922
X1.7114Y-5.178
X1.8886Y-4.922
X1.8886Y-5.178
X1.9Y-2.7
X1.9114Y-3.922
X1.9114Y-4.178
X2.Y-2.7
X2.0886Y-3.922
X2.0886Y-4.178
X2.1114Y-4.922
X2.1114Y-5.178
X2.2Y-2.7
X2.2886Y-4.922
X2.2886Y-5.178
X2.3Y-2.7
X2.3114Y-3.522
X2.3114Y-3.778
X2.3114Y-4.322
X2.3114Y-4.578
X2.4886Y-3.522
X2.4886Y-3.778
X2.4886Y-4.322
X2.4886Y-4.578
X2.5Y-2.7
X2.5114Y-4.922
X2.5114Y-5.178
X2.6Y-2.7
X2.6886Y-4.922
X2.6886Y-5.178
X2.7114Y-3.922
X2.7114Y-4.178
X2.8Y-2.7
X2.8886Y-3.922
X2.8886Y-4.178
X2.9Y-2.7
X2.9114Y-4.922
X2.9114Y-5.178
X3.0886Y-4.922
X3.0886Y-5.178
X3.1Y-2.7
X3.2Y-2.7
X3.4Y-2.7
X3.5Y-2.7
X3.7Y-2.7
X3.8Y-2.7
X5.0114Y-1.422
X5.0114Y-1.678
X5.05Y-1.1
X5.15Y-1.1
X5.1886Y-1.422
X5.1886Y-1.678
X5.85Y-4.8
X5.85Y-4.9
X5.85Y-5.
X5.85Y-5.3
X5.85Y-5.4
X5.85Y-5.5
T9
X1.2Y-5.85
X1.2Y-5.95
X1.3Y-5.85
X1.3Y-5.95
X1.4Y-5.85
X1.4Y-5.95
X1.5Y-5.85
X1.5Y-5.95
X1.6Y-5.85
X1.6Y-5.95
X2.55Y-5.85
X2.55Y-5.95
X2.65Y-5.85
X2.65Y-5.95
X2.75Y-5.85
X2.75Y-5.95
X2.85Y-5.85
X2.85Y-5.95
X2.95Y-5.85
X2.95Y-5.95
X3.05Y-5.85
X3.05Y-5.95
X3.15Y-5.85
X3.15Y-5.95
X6.05Y-1.1
X6.05Y-1.2
X6.15Y-1.1
X6.15Y-1.2
X6.25Y-1.1
X6.25Y-1.2
X6.35Y-1.1
X6.35Y-1.2
X6.35Y-2.75
X6.35Y-2.95
X6.35Y-3.05
X6.45Y-1.1
X6.45Y-1.2
X6.45Y-2.75
X6.45Y-2.95
X6.45Y-3.05
X6.45Y-3.35
X6.45Y-3.45
X6.45Y-3.55
X6.45Y-3.65
X6.45Y-3.75
X6.45Y-4.1
X6.45Y-4.2
X6.45Y-4.3
X6.45Y-4.4
X6.45Y-4.5
X6.55Y-2.75
X6.55Y-2.95
X6.55Y-3.05
X6.55Y-3.35
X6.55Y-3.45
X6.55Y-3.55
X6.55Y-3.65
X6.55Y-3.75
X6.55Y-4.1
X6.55Y-4.2
X6.55Y-4.3
X6.55Y-4.4
X6.55Y-4.5
T10
X1.Y-1.2
X1.Y-1.4
X1.Y-1.6
X1.Y-2.1
X1.Y-2.3
X1.Y-2.5
X1.Y-3.
X1.Y-3.2
X1.Y-3.4
X1.Y-3.9
X1.Y-4.1
X1.Y-4.3
T11
X1.75Y-1.1
X1.85Y-1.1
X1.95Y-1.1
X2.05Y-1.1
X2.15Y-1.1
X2.25Y-1.1
X2.35Y-1.1
X2.45Y-1.1
X2.55Y-1.1
X2.65Y-1.1
X2.75Y-1.1
X2.85Y-1.1
X2.95Y-1.1
X3.05Y-1.1
X3.15Y-1.1
X3.25Y-1.1
T12
X5.75Y-3.5
X5.75Y-4.3067
T13
X1.5335Y-1.1
X1.5335Y-2.3205
X4.4862Y-2.3205
X4.4862Y-1.1
T7
X6.3Y-5.9394G85X6.3Y-5.8606
G05
X6.4575Y-5.715G85X6.3787Y-5.715
G05
X6.5362Y-5.9394G85X6.5362Y-5.8606
G05
T0
M30
