G04 #@! TF.FileFunction,Profile,NP*
%FSLAX46Y46*%
G04 Gerber Fmt 4.6, Leading zero omitted, Abs format (unit mm)*
G04 Created by KiCad (PCBNEW 4.0.5+dfsg1-4) date Fri Sep 29 14:11:11 2017*
%MOMM*%
%LPD*%
G01*
G04 APERTURE LIST*
%ADD10C,0.100000*%
G04 APERTURE END LIST*
D10*
X170180000Y-22860000D02*
X170180000Y-156210000D01*
X20320000Y-22860000D02*
X170180000Y-22860000D01*
X20320000Y-156210000D02*
X20320000Y-22860000D01*
X170180000Y-156210000D02*
X20320000Y-156210000D01*
M02*
