G04 #@! TF.FileFunction,Copper,L2,Inr,Signal*
%FSLAX46Y46*%
G04 Gerber Fmt 4.6, Leading zero omitted, Abs format (unit mm)*
G04 Created by KiCad (PCBNEW 4.0.5+dfsg1-4) date Fri Sep 29 14:10:40 2017*
%MOMM*%
%LPD*%
G01*
G04 APERTURE LIST*
%ADD10C,0.100000*%
%ADD11R,1.397000X1.397000*%
%ADD12C,1.397000*%
%ADD13R,1.900000X2.000000*%
%ADD14C,1.900000*%
%ADD15R,1.727200X1.727200*%
%ADD16O,1.727200X1.727200*%
%ADD17C,1.000760*%
%ADD18C,2.499360*%
%ADD19C,1.422400*%
%ADD20C,1.270000*%
%ADD21C,1.524000*%
%ADD22R,1.727200X2.032000*%
%ADD23O,1.727200X2.032000*%
%ADD24C,1.998980*%
%ADD25R,1.800000X2.600000*%
%ADD26O,1.800000X2.600000*%
%ADD27C,3.000000*%
%ADD28R,3.000000X3.000000*%
%ADD29R,3.500000X3.500000*%
%ADD30O,3.500120X1.699260*%
%ADD31R,1.600000X1.600000*%
%ADD32O,1.600000X1.600000*%
%ADD33R,2.400000X1.600000*%
%ADD34O,2.400000X1.600000*%
%ADD35R,1.651000X1.651000*%
%ADD36C,1.651000*%
%ADD37C,2.250000*%
%ADD38C,1.500000*%
%ADD39C,3.650000*%
%ADD40R,1.500000X1.500000*%
%ADD41C,0.600000*%
%ADD42C,0.250000*%
G04 APERTURE END LIST*
D10*
X170180000Y-22860000D02*
X170180000Y-156210000D01*
X20320000Y-22860000D02*
X170180000Y-22860000D01*
X20320000Y-156210000D02*
X20320000Y-22860000D01*
X170180000Y-156210000D02*
X20320000Y-156210000D01*
D11*
X118110000Y-76200000D03*
D12*
X118110000Y-86360000D03*
D13*
X40640000Y-68580000D03*
D14*
X43180000Y-68580000D03*
D13*
X48260000Y-68580000D03*
D14*
X50800000Y-68580000D03*
D13*
X55880000Y-68580000D03*
D14*
X58420000Y-68580000D03*
D13*
X63500000Y-68580000D03*
D14*
X66040000Y-68580000D03*
D13*
X71120000Y-68580000D03*
D14*
X73660000Y-68580000D03*
D13*
X78740000Y-68580000D03*
D14*
X81280000Y-68580000D03*
D13*
X86360000Y-68580000D03*
D14*
X88900000Y-68580000D03*
D13*
X93980000Y-68580000D03*
D14*
X96520000Y-68580000D03*
D13*
X128270000Y-27940000D03*
D14*
X130810000Y-27940000D03*
D15*
X163830000Y-104140000D03*
D16*
X166370000Y-104140000D03*
X163830000Y-106680000D03*
X166370000Y-106680000D03*
X163830000Y-109220000D03*
X166370000Y-109220000D03*
X163830000Y-111760000D03*
X166370000Y-111760000D03*
X163830000Y-114300000D03*
X166370000Y-114300000D03*
D15*
X163830000Y-85090000D03*
D16*
X166370000Y-85090000D03*
X163830000Y-87630000D03*
X166370000Y-87630000D03*
X163830000Y-90170000D03*
X166370000Y-90170000D03*
X163830000Y-92710000D03*
X166370000Y-92710000D03*
X163830000Y-95250000D03*
X166370000Y-95250000D03*
D15*
X153670000Y-30480000D03*
D16*
X153670000Y-27940000D03*
X156210000Y-30480000D03*
X156210000Y-27940000D03*
X158750000Y-30480000D03*
X158750000Y-27940000D03*
X161290000Y-30480000D03*
X161290000Y-27940000D03*
X163830000Y-30480000D03*
X163830000Y-27940000D03*
D17*
X143510000Y-40640000D03*
X142240000Y-41910000D03*
X142240000Y-39370000D03*
D11*
X111760000Y-76200000D03*
D12*
X111760000Y-86360000D03*
D11*
X146050000Y-62230000D03*
D12*
X146050000Y-52070000D03*
D11*
X140970000Y-62230000D03*
D12*
X140970000Y-52070000D03*
D11*
X133350000Y-62230000D03*
D12*
X133350000Y-52070000D03*
D11*
X128270000Y-62230000D03*
D12*
X128270000Y-52070000D03*
D11*
X132080000Y-132080000D03*
D12*
X132080000Y-142240000D03*
D11*
X127000000Y-132080000D03*
D12*
X127000000Y-142240000D03*
D11*
X41910000Y-73660000D03*
D12*
X41910000Y-83820000D03*
D11*
X49530000Y-73660000D03*
D12*
X49530000Y-83820000D03*
D11*
X57150000Y-73660000D03*
D12*
X57150000Y-83820000D03*
D11*
X64770000Y-73660000D03*
D12*
X64770000Y-83820000D03*
D11*
X39370000Y-107950000D03*
D12*
X39370000Y-118110000D03*
D11*
X44450000Y-107950000D03*
D12*
X44450000Y-118110000D03*
D11*
X72390000Y-73660000D03*
D12*
X72390000Y-83820000D03*
D11*
X80010000Y-73660000D03*
D12*
X80010000Y-83820000D03*
D11*
X87630000Y-73660000D03*
D12*
X87630000Y-83820000D03*
D11*
X82550000Y-107950000D03*
D12*
X82550000Y-118110000D03*
D11*
X77470000Y-107950000D03*
D12*
X77470000Y-118110000D03*
D11*
X95250000Y-73660000D03*
D12*
X95250000Y-83820000D03*
D11*
X153670000Y-38100000D03*
D12*
X163830000Y-38100000D03*
D11*
X135890000Y-27940000D03*
D12*
X146050000Y-27940000D03*
D11*
X24130000Y-140970000D03*
D12*
X34290000Y-140970000D03*
D11*
X41910000Y-140970000D03*
D12*
X52070000Y-140970000D03*
D11*
X153670000Y-41910000D03*
D12*
X163830000Y-41910000D03*
D11*
X58420000Y-140970000D03*
D12*
X68580000Y-140970000D03*
D11*
X74930000Y-140970000D03*
D12*
X85090000Y-140970000D03*
D18*
X25400000Y-35560000D03*
X25400000Y-40640000D03*
X25400000Y-30480000D03*
X25400000Y-58420000D03*
X25400000Y-63500000D03*
X25400000Y-53340000D03*
X25400000Y-81280000D03*
X25400000Y-86360000D03*
X25400000Y-76200000D03*
X25400000Y-104140000D03*
X25400000Y-109220000D03*
X25400000Y-99060000D03*
D19*
X120650000Y-110490000D03*
X120650000Y-105410000D03*
D20*
X105410000Y-132080000D03*
X107950000Y-132080000D03*
D21*
X119380000Y-25400000D03*
X121920000Y-33020000D03*
X119380000Y-43180000D03*
D22*
X161290000Y-69850000D03*
D23*
X163830000Y-69850000D03*
X166370000Y-69850000D03*
D24*
X127289560Y-36118800D03*
X131790440Y-42621200D03*
X131790440Y-36118800D03*
X127289560Y-42621200D03*
X58709560Y-89458800D03*
X63210440Y-95961200D03*
X63210440Y-89458800D03*
X58709560Y-95961200D03*
X48549560Y-99618800D03*
X53050440Y-106121200D03*
X53050440Y-99618800D03*
X48549560Y-106121200D03*
X68869560Y-99618800D03*
X73370440Y-106121200D03*
X73370440Y-99618800D03*
X68869560Y-106121200D03*
X58709560Y-109778800D03*
X63210440Y-116281200D03*
X63210440Y-109778800D03*
X58709560Y-116281200D03*
X43469560Y-125018800D03*
X47970440Y-131521200D03*
X47970440Y-125018800D03*
X43469560Y-131521200D03*
X53629560Y-125018800D03*
X58130440Y-131521200D03*
X58130440Y-125018800D03*
X53629560Y-131521200D03*
X63789560Y-125018800D03*
X68290440Y-131521200D03*
X68290440Y-125018800D03*
X63789560Y-131521200D03*
X73949560Y-125018800D03*
X78450440Y-131521200D03*
X78450440Y-125018800D03*
X73949560Y-131521200D03*
D25*
X44450000Y-27940000D03*
D26*
X46990000Y-27940000D03*
X49530000Y-27940000D03*
X52070000Y-27940000D03*
X54610000Y-27940000D03*
X57150000Y-27940000D03*
X59690000Y-27940000D03*
X62230000Y-27940000D03*
X64770000Y-27940000D03*
X67310000Y-27940000D03*
X69850000Y-27940000D03*
X72390000Y-27940000D03*
X74930000Y-27940000D03*
X77470000Y-27940000D03*
X80010000Y-27940000D03*
X82550000Y-27940000D03*
D27*
X38950900Y-27940000D03*
X38950900Y-58940700D03*
X113949480Y-58940700D03*
X113950000Y-27940000D03*
X146050000Y-109390000D03*
D28*
X146050000Y-88900000D03*
D29*
X160020000Y-149860000D03*
X166020000Y-149860000D03*
X163020000Y-145160000D03*
D15*
X64770000Y-151130000D03*
D16*
X64770000Y-148590000D03*
X67310000Y-151130000D03*
X67310000Y-148590000D03*
X69850000Y-151130000D03*
X69850000Y-148590000D03*
X72390000Y-151130000D03*
X72390000Y-148590000D03*
X74930000Y-151130000D03*
X74930000Y-148590000D03*
X77470000Y-151130000D03*
X77470000Y-148590000D03*
X80010000Y-151130000D03*
X80010000Y-148590000D03*
D15*
X30480000Y-151130000D03*
D16*
X30480000Y-148590000D03*
X33020000Y-151130000D03*
X33020000Y-148590000D03*
X35560000Y-151130000D03*
X35560000Y-148590000D03*
X38100000Y-151130000D03*
X38100000Y-148590000D03*
X40640000Y-151130000D03*
X40640000Y-148590000D03*
D15*
X161290000Y-77470000D03*
D16*
X161290000Y-74930000D03*
X163830000Y-77470000D03*
X163830000Y-74930000D03*
X166370000Y-77470000D03*
X166370000Y-74930000D03*
D30*
X148590000Y-137160000D03*
X148590000Y-134620000D03*
X148590000Y-139700000D03*
X148590000Y-124460000D03*
X148590000Y-121920000D03*
X148590000Y-127000000D03*
D31*
X114300000Y-129540000D03*
D32*
X121920000Y-137160000D03*
X114300000Y-132080000D03*
X121920000Y-134620000D03*
X114300000Y-134620000D03*
X121920000Y-132080000D03*
X114300000Y-137160000D03*
X121920000Y-129540000D03*
D33*
X91440000Y-132080000D03*
D34*
X99060000Y-139700000D03*
X91440000Y-134620000D03*
X99060000Y-137160000D03*
X91440000Y-137160000D03*
X99060000Y-134620000D03*
X91440000Y-139700000D03*
X99060000Y-132080000D03*
D35*
X151130000Y-148590000D03*
D36*
X151130000Y-151130000D03*
D35*
X82550000Y-93980000D03*
D36*
X82550000Y-91440000D03*
D35*
X142240000Y-148590000D03*
D36*
X142240000Y-151130000D03*
D35*
X91440000Y-93980000D03*
D36*
X91440000Y-91440000D03*
D35*
X127000000Y-148590000D03*
D36*
X127000000Y-151130000D03*
D35*
X138430000Y-123190000D03*
D36*
X138430000Y-125730000D03*
D35*
X115570000Y-148590000D03*
D36*
X115570000Y-151130000D03*
D35*
X138430000Y-134620000D03*
D36*
X138430000Y-137160000D03*
D35*
X127000000Y-113030000D03*
D36*
X129540000Y-113030000D03*
D35*
X127000000Y-101600000D03*
D36*
X129540000Y-101600000D03*
D35*
X88900000Y-109220000D03*
D36*
X91440000Y-109220000D03*
D35*
X101600000Y-92710000D03*
D36*
X104140000Y-92710000D03*
D35*
X115570000Y-92710000D03*
D36*
X118110000Y-92710000D03*
D35*
X88900000Y-123190000D03*
D36*
X91440000Y-123190000D03*
D35*
X129540000Y-80010000D03*
D36*
X129540000Y-82550000D03*
D35*
X148590000Y-80010000D03*
D36*
X148590000Y-82550000D03*
D35*
X139700000Y-80010000D03*
D36*
X139700000Y-82550000D03*
D35*
X143510000Y-69850000D03*
D36*
X143510000Y-72390000D03*
D35*
X130810000Y-69850000D03*
D36*
X130810000Y-72390000D03*
D35*
X27940000Y-128270000D03*
D36*
X25400000Y-128270000D03*
D35*
X36830000Y-128270000D03*
D36*
X34290000Y-128270000D03*
D35*
X38100000Y-90170000D03*
D36*
X40640000Y-90170000D03*
D35*
X38100000Y-99060000D03*
D36*
X40640000Y-99060000D03*
D37*
X158240000Y-50030000D03*
X158240000Y-65890000D03*
D38*
X165350000Y-54050000D03*
X165350000Y-51510000D03*
X165350000Y-64770000D03*
X165350000Y-62230000D03*
D39*
X161290000Y-52425000D03*
X161290000Y-63855000D03*
D40*
X154940000Y-62230000D03*
D38*
X152400000Y-60960000D03*
X154940000Y-59690000D03*
X152400000Y-58420000D03*
X154940000Y-57150000D03*
X152400000Y-55880000D03*
X154940000Y-54610000D03*
X152400000Y-53340000D03*
D41*
X132080000Y-30988000D03*
X111760000Y-36068000D03*
X94996000Y-89916000D03*
X110236000Y-73152000D03*
X114300000Y-72644000D03*
X86360000Y-150876000D03*
X96520000Y-135128000D03*
X106172000Y-114300000D03*
X107188000Y-123952000D03*
X103632000Y-124968000D03*
X109220000Y-107696000D03*
X109728000Y-77724000D03*
X78232000Y-80772000D03*
X139700000Y-42164000D03*
X137160000Y-54356000D03*
X161036000Y-94488000D03*
X163068000Y-79248000D03*
X113792000Y-110744000D03*
X147320000Y-24892000D03*
X164084000Y-25908000D03*
X91440000Y-104648000D03*
X60960000Y-34290000D03*
X48260000Y-34290000D03*
X109220000Y-97790000D03*
X106680000Y-96520000D03*
X120650000Y-105410000D03*
X101092000Y-128016000D03*
X40640000Y-121412000D03*
X102108000Y-120396000D03*
X35052000Y-115824000D03*
X103124000Y-119380000D03*
X93980000Y-127000000D03*
X89408000Y-127000000D03*
X38608000Y-80264000D03*
X35560000Y-97028000D03*
X53848000Y-50292000D03*
X103124000Y-121920000D03*
X143764000Y-135128000D03*
X144272000Y-145288000D03*
X116840000Y-57912000D03*
X135128000Y-101600000D03*
X132080000Y-103632000D03*
X107696000Y-65024000D03*
X107188000Y-61468000D03*
X110236000Y-62992000D03*
X91440000Y-102616000D03*
X90932000Y-85852000D03*
X89408000Y-82804000D03*
X100076000Y-108712000D03*
X91440000Y-82804000D03*
X97028000Y-82804000D03*
X97028000Y-107696000D03*
X105156000Y-122936000D03*
X91948000Y-79248000D03*
X102108000Y-118364000D03*
X120904000Y-119888000D03*
X135128000Y-116840000D03*
X141732000Y-110744000D03*
X153416000Y-100584000D03*
X159512000Y-94488000D03*
X158496000Y-77216000D03*
X72136000Y-128016000D03*
X121412000Y-100076000D03*
X168148000Y-78740000D03*
X125476000Y-89408000D03*
X123952000Y-116840000D03*
X87884000Y-130556000D03*
X101600000Y-130556000D03*
X109220000Y-111760000D03*
X45212000Y-121412000D03*
X165100000Y-81280000D03*
X131064000Y-82804000D03*
X131064000Y-87884000D03*
X119380000Y-107188000D03*
X131064000Y-91948000D03*
X136144000Y-90424000D03*
X140716000Y-59436000D03*
X127000000Y-94996000D03*
X128524000Y-88392000D03*
X125984000Y-60452000D03*
X139192000Y-58420000D03*
X123952000Y-69596000D03*
X122428000Y-97536000D03*
X126492000Y-89408000D03*
X123444000Y-71120000D03*
X123444000Y-97536000D03*
X130048000Y-87884000D03*
X123952000Y-68580000D03*
X84328000Y-125476000D03*
X97536000Y-97028000D03*
X97536000Y-120396000D03*
X83312000Y-125984000D03*
X98552000Y-119888000D03*
X97536000Y-98552000D03*
X31496000Y-153924000D03*
X43688000Y-90424000D03*
X80772000Y-97028000D03*
X94996000Y-92964000D03*
X30480000Y-144780000D03*
X42672000Y-103632000D03*
X78232000Y-96012000D03*
X94996000Y-90932000D03*
X97536000Y-95504000D03*
X97536000Y-103124000D03*
X35560000Y-153416000D03*
X76200000Y-122936000D03*
X85344000Y-119380000D03*
X96012000Y-119380000D03*
X99568000Y-117348000D03*
X92964000Y-112776000D03*
X51308000Y-120904000D03*
X34544000Y-145796000D03*
X38100000Y-153416000D03*
X97536000Y-115316000D03*
X37084000Y-146304000D03*
X57404000Y-120904000D03*
X99060000Y-115824000D03*
X149860000Y-109728000D03*
X149860000Y-107188000D03*
X156464000Y-103124000D03*
X144780000Y-103124000D03*
X132080000Y-105664000D03*
X127508000Y-105664000D03*
X119380000Y-108204000D03*
X169164000Y-102616000D03*
X144780000Y-105156000D03*
X132080000Y-106680000D03*
X127508000Y-107188000D03*
X118872000Y-110236000D03*
X153416000Y-106172000D03*
X123952000Y-119888000D03*
X127000000Y-117856000D03*
X155448000Y-115824000D03*
X121412000Y-116840000D03*
X109728000Y-113792000D03*
X123952000Y-111760000D03*
X155448000Y-111252000D03*
X108712000Y-112776000D03*
X115824000Y-110744000D03*
X167640000Y-116332000D03*
X133604000Y-129032000D03*
X106680000Y-125984000D03*
X153416000Y-85344000D03*
X137668000Y-85852000D03*
X105156000Y-100584000D03*
X105156000Y-107696000D03*
X169164000Y-84328000D03*
X156972000Y-87376000D03*
X105156000Y-106680000D03*
X169672000Y-89916000D03*
X136652000Y-92964000D03*
X105664000Y-105664000D03*
X156464000Y-91440000D03*
X105664000Y-104648000D03*
X106680000Y-105156000D03*
X138176000Y-92964000D03*
X168656000Y-91948000D03*
X137668000Y-86868000D03*
X153416000Y-86360000D03*
X107188000Y-101092000D03*
X111760000Y-95504000D03*
X131064000Y-90932000D03*
X137668000Y-88900000D03*
X162052000Y-99060000D03*
X107188000Y-104140000D03*
X66548000Y-152400000D03*
X103124000Y-140716000D03*
X132588000Y-120904000D03*
X132588000Y-115824000D03*
X131572000Y-109220000D03*
X67056000Y-144780000D03*
X112776000Y-143764000D03*
X68580000Y-152908000D03*
X96012000Y-139192000D03*
X129540000Y-122936000D03*
X129540000Y-117348000D03*
X116332000Y-112268000D03*
X112268000Y-149352000D03*
X69596000Y-144272000D03*
X108712000Y-152908000D03*
X73660000Y-152400000D03*
X103632000Y-130556000D03*
X130556000Y-110236000D03*
X72644000Y-144780000D03*
X75692000Y-152908000D03*
X121412000Y-146812000D03*
X88900000Y-148844000D03*
X75184000Y-145796000D03*
X124968000Y-131064000D03*
X128016000Y-123444000D03*
X128016000Y-116840000D03*
X114300000Y-111252000D03*
X113284000Y-147828000D03*
X115824000Y-143256000D03*
X77216000Y-141732000D03*
X118110000Y-39370000D03*
X111760000Y-45720000D03*
X54610000Y-40640000D03*
X97790000Y-123190000D03*
X95250000Y-96520000D03*
X55880000Y-40640000D03*
X102616000Y-113284000D03*
X101600000Y-86868000D03*
X57912000Y-40132000D03*
X102870000Y-83820000D03*
X71120000Y-40640000D03*
X102108000Y-112268000D03*
X96012000Y-112776000D03*
X103632000Y-81788000D03*
X73660000Y-40640000D03*
X103124000Y-87376000D03*
X75692000Y-40640000D03*
X101600000Y-110744000D03*
X103632000Y-97536000D03*
X78232000Y-40640000D03*
X100584000Y-110236000D03*
X167132000Y-40132000D03*
X96012000Y-118364000D03*
X119888000Y-60452000D03*
X42164000Y-115824000D03*
X85344000Y-110744000D03*
X105156000Y-108712000D03*
X97536000Y-125476000D03*
X87884000Y-117348000D03*
X97028000Y-106172000D03*
X99568000Y-121920000D03*
X83312000Y-116840000D03*
X101600000Y-107696000D03*
X100584000Y-119888000D03*
X32004000Y-141224000D03*
X59436000Y-134620000D03*
X101092000Y-108712000D03*
X70104000Y-129540000D03*
X85852000Y-121920000D03*
X78740000Y-89408000D03*
X103632000Y-84328000D03*
X102616000Y-86868000D03*
X109220000Y-106680000D03*
X85344000Y-112776000D03*
X85344000Y-114300000D03*
X110236000Y-107696000D03*
X151892000Y-35560000D03*
X102108000Y-101092000D03*
X113792000Y-81788000D03*
X122936000Y-54864000D03*
X150368000Y-25908000D03*
X136144000Y-81788000D03*
X105156000Y-98552000D03*
X166624000Y-49276000D03*
X123952000Y-74168000D03*
X167640000Y-36068000D03*
X108204000Y-88900000D03*
X102616000Y-105156000D03*
X137160000Y-84836000D03*
X152400000Y-83820000D03*
X105156000Y-99568000D03*
X100584000Y-105664000D03*
X108712000Y-75184000D03*
X109220000Y-67056000D03*
X110236000Y-58928000D03*
X148844000Y-34036000D03*
X99568000Y-98552000D03*
X97536000Y-81788000D03*
X147320000Y-31496000D03*
X121920000Y-54864000D03*
X112776000Y-80264000D03*
X150368000Y-35052000D03*
X100584000Y-104648000D03*
X107696000Y-78232000D03*
X107696000Y-69088000D03*
X111252000Y-62484000D03*
X147320000Y-33020000D03*
X89916000Y-119380000D03*
X107696000Y-109728000D03*
X141224000Y-94996000D03*
X141224000Y-89408000D03*
X142240000Y-84328000D03*
X150368000Y-73152000D03*
X115316000Y-88392000D03*
X105410000Y-96520000D03*
X132080000Y-81280000D03*
X110490000Y-95250000D03*
X139192000Y-29464000D03*
X125476000Y-125476000D03*
X130556000Y-147320000D03*
X60960000Y-111760000D03*
X61976000Y-128016000D03*
X62992000Y-138176000D03*
X43180000Y-147320000D03*
X62484000Y-146812000D03*
X77724000Y-134620000D03*
X93980000Y-132080000D03*
X152400000Y-129032000D03*
X167132000Y-118364000D03*
X166116000Y-43180000D03*
X166624000Y-32512000D03*
X167640000Y-51308000D03*
X130556000Y-103124000D03*
X133604000Y-114300000D03*
X133604000Y-119380000D03*
X164592000Y-97536000D03*
X152400000Y-82296000D03*
D42*
X89408000Y-150876000D02*
X86360000Y-150876000D01*
X93980000Y-146304000D02*
X89408000Y-150876000D01*
X93980000Y-137668000D02*
X93980000Y-146304000D01*
X96520000Y-135128000D02*
X93980000Y-137668000D01*
X104140000Y-123952000D02*
X105156000Y-122936000D01*
X96012000Y-123952000D02*
X104140000Y-123952000D01*
X93980000Y-121920000D02*
X96012000Y-123952000D01*
X93980000Y-120904000D02*
X93980000Y-121920000D01*
X93980000Y-116840000D02*
X93980000Y-120904000D01*
X93980000Y-96012000D02*
X93980000Y-116840000D01*
X93980000Y-87884000D02*
X93980000Y-96012000D01*
X93472000Y-87376000D02*
X93980000Y-87884000D01*
X93472000Y-80772000D02*
X93472000Y-87376000D01*
X91948000Y-79248000D02*
X93472000Y-80772000D01*
X112268000Y-111760000D02*
X115824000Y-115316000D01*
X115824000Y-115316000D02*
X115824000Y-123444000D01*
X115824000Y-123444000D02*
X110744000Y-128524000D01*
X110744000Y-128524000D02*
X101600000Y-128524000D01*
X101600000Y-128524000D02*
X101092000Y-129032000D01*
X101092000Y-129032000D02*
X94996000Y-129032000D01*
X94996000Y-129032000D02*
X93980000Y-128016000D01*
X93980000Y-128016000D02*
X72136000Y-128016000D01*
X112268000Y-111760000D02*
X109220000Y-111760000D01*
X157988000Y-81280000D02*
X165100000Y-81280000D01*
X154940000Y-78232000D02*
X157988000Y-81280000D01*
X154940000Y-72644000D02*
X154940000Y-78232000D01*
X153416000Y-71120000D02*
X154940000Y-72644000D01*
X149860000Y-71120000D02*
X153416000Y-71120000D01*
X146304000Y-74676000D02*
X149860000Y-71120000D01*
X130048000Y-74676000D02*
X146304000Y-74676000D01*
X128016000Y-72644000D02*
X130048000Y-74676000D01*
X118872000Y-72644000D02*
X128016000Y-72644000D01*
X111252000Y-80264000D02*
X118872000Y-72644000D01*
X106680000Y-80264000D02*
X111252000Y-80264000D01*
X103124000Y-76708000D02*
X106680000Y-80264000D01*
X80264000Y-76708000D02*
X103124000Y-76708000D01*
X75692000Y-81280000D02*
X80264000Y-76708000D01*
X75692000Y-89408000D02*
X75692000Y-81280000D01*
X55372000Y-109728000D02*
X75692000Y-89408000D01*
X55372000Y-111252000D02*
X55372000Y-109728000D01*
X45212000Y-121412000D02*
X55372000Y-111252000D01*
X98552000Y-96520000D02*
X97536000Y-95504000D01*
X98552000Y-102108000D02*
X98552000Y-96520000D01*
X97536000Y-103124000D02*
X98552000Y-102108000D01*
X76200000Y-122936000D02*
X79756000Y-119380000D01*
X79756000Y-119380000D02*
X85344000Y-119380000D01*
X156464000Y-87884000D02*
X156972000Y-87376000D01*
X150368000Y-87884000D02*
X156464000Y-87884000D01*
X148336000Y-85852000D02*
X150368000Y-87884000D01*
X142748000Y-85852000D02*
X148336000Y-85852000D01*
X140716000Y-87884000D02*
X142748000Y-85852000D01*
X132588000Y-87884000D02*
X140716000Y-87884000D01*
X130048000Y-90424000D02*
X132588000Y-87884000D01*
X113792000Y-90424000D02*
X130048000Y-90424000D01*
X106172000Y-98044000D02*
X113792000Y-90424000D01*
X106172000Y-100584000D02*
X106172000Y-98044000D01*
X105664000Y-101092000D02*
X106172000Y-100584000D01*
X104648000Y-102108000D02*
X105664000Y-101092000D01*
X104648000Y-106172000D02*
X104648000Y-102108000D01*
X105156000Y-106680000D02*
X104648000Y-106172000D01*
X136144000Y-91440000D02*
X156464000Y-91440000D01*
X134620000Y-92964000D02*
X136144000Y-91440000D01*
X127000000Y-92964000D02*
X134620000Y-92964000D01*
X125476000Y-94488000D02*
X127000000Y-92964000D01*
X110236000Y-94488000D02*
X125476000Y-94488000D01*
X107696000Y-97028000D02*
X110236000Y-94488000D01*
X107696000Y-99568000D02*
X107696000Y-97028000D01*
X105156000Y-102108000D02*
X107696000Y-99568000D01*
X105156000Y-104140000D02*
X105156000Y-102108000D01*
X105664000Y-104648000D02*
X105156000Y-104140000D01*
X107188000Y-104140000D02*
X107188000Y-102108000D01*
X110236000Y-99568000D02*
X110236000Y-97028000D01*
X108204000Y-101600000D02*
X110236000Y-99568000D01*
X107696000Y-101600000D02*
X108204000Y-101600000D01*
X107188000Y-102108000D02*
X107696000Y-101600000D01*
X110236000Y-97028000D02*
X111760000Y-95504000D01*
X68072000Y-153416000D02*
X68580000Y-152908000D01*
X61468000Y-153416000D02*
X68072000Y-153416000D01*
X59436000Y-151384000D02*
X61468000Y-153416000D01*
X59436000Y-145288000D02*
X59436000Y-151384000D01*
X61976000Y-142748000D02*
X59436000Y-145288000D01*
X70612000Y-142748000D02*
X61976000Y-142748000D01*
X71628000Y-143764000D02*
X70612000Y-142748000D01*
X79756000Y-143764000D02*
X71628000Y-143764000D01*
X82296000Y-146304000D02*
X79756000Y-143764000D01*
X82296000Y-149352000D02*
X82296000Y-146304000D01*
X84836000Y-151892000D02*
X82296000Y-149352000D01*
X93472000Y-151892000D02*
X84836000Y-151892000D01*
X95504000Y-149860000D02*
X93472000Y-151892000D01*
X95504000Y-139700000D02*
X95504000Y-149860000D01*
X96012000Y-139192000D02*
X95504000Y-139700000D01*
X96520000Y-123190000D02*
X97790000Y-123190000D01*
X95250000Y-121920000D02*
X96520000Y-123190000D01*
X95250000Y-106680000D02*
X95250000Y-121920000D01*
X95250000Y-105410000D02*
X95250000Y-106680000D01*
X95250000Y-96520000D02*
X95250000Y-105410000D01*
X102108000Y-98044000D02*
X104140000Y-100076000D01*
X103124000Y-112776000D02*
X102616000Y-113284000D01*
X103124000Y-110236000D02*
X103124000Y-112776000D01*
X104140000Y-109220000D02*
X103124000Y-110236000D01*
X104140000Y-100076000D02*
X104140000Y-109220000D01*
X97536000Y-93472000D02*
X102108000Y-98044000D01*
X97536000Y-90932000D02*
X97536000Y-93472000D01*
X101600000Y-86868000D02*
X97536000Y-90932000D01*
X103632000Y-101092000D02*
X103632000Y-100076000D01*
X102870000Y-84582000D02*
X102870000Y-83820000D01*
X100584000Y-86868000D02*
X102870000Y-84582000D01*
X100584000Y-87376000D02*
X100584000Y-86868000D01*
X97028000Y-90932000D02*
X100584000Y-87376000D01*
X97028000Y-93472000D02*
X97028000Y-90932000D01*
X103632000Y-100076000D02*
X97028000Y-93472000D01*
X103632000Y-101092000D02*
X103632000Y-108712000D01*
X103632000Y-108712000D02*
X102616000Y-109728000D01*
X102616000Y-109728000D02*
X102616000Y-111760000D01*
X102616000Y-111760000D02*
X102108000Y-112268000D01*
X96012000Y-89408000D02*
X96012000Y-112776000D01*
X103632000Y-81788000D02*
X96012000Y-89408000D01*
X101600000Y-107696000D02*
X99060000Y-107696000D01*
X99060000Y-107696000D02*
X97028000Y-109728000D01*
X97028000Y-109728000D02*
X97028000Y-113792000D01*
X97028000Y-113792000D02*
X96520000Y-114300000D01*
X96520000Y-114300000D02*
X96520000Y-116840000D01*
X96520000Y-116840000D02*
X99568000Y-119888000D01*
X99568000Y-119888000D02*
X100584000Y-119888000D01*
X107696000Y-109728000D02*
X107696000Y-110236000D01*
X92456000Y-121920000D02*
X89916000Y-119380000D01*
X94488000Y-123952000D02*
X92456000Y-121920000D01*
X94488000Y-124968000D02*
X94488000Y-123952000D01*
X96520000Y-127000000D02*
X94488000Y-124968000D01*
X99060000Y-127000000D02*
X96520000Y-127000000D01*
X100076000Y-125984000D02*
X99060000Y-127000000D01*
X104648000Y-125984000D02*
X100076000Y-125984000D01*
X106172000Y-124460000D02*
X104648000Y-125984000D01*
X106172000Y-122936000D02*
X106172000Y-124460000D01*
X105664000Y-122428000D02*
X106172000Y-122936000D01*
X104140000Y-120904000D02*
X105664000Y-122428000D01*
X104140000Y-113792000D02*
X104140000Y-120904000D01*
X107696000Y-110236000D02*
X104140000Y-113792000D01*
X107696000Y-109728000D02*
X107188000Y-109220000D01*
X107188000Y-109220000D02*
X107188000Y-107188000D01*
X107188000Y-107188000D02*
X109220000Y-105156000D01*
X109220000Y-105156000D02*
X109728000Y-105156000D01*
X109728000Y-105156000D02*
X118364000Y-96520000D01*
X118364000Y-96520000D02*
X139700000Y-96520000D01*
X139700000Y-96520000D02*
X141224000Y-94996000D01*
X115824000Y-85344000D02*
X115316000Y-85852000D01*
X117348000Y-83820000D02*
X115824000Y-85344000D01*
X137160000Y-83820000D02*
X117348000Y-83820000D01*
X141732000Y-83820000D02*
X137160000Y-83820000D01*
X142240000Y-84328000D02*
X141732000Y-83820000D01*
X150368000Y-73152000D02*
X147828000Y-75692000D01*
X147828000Y-75692000D02*
X121920000Y-75692000D01*
X121920000Y-75692000D02*
X115316000Y-82296000D01*
X115316000Y-82296000D02*
X115316000Y-85852000D01*
X115316000Y-85852000D02*
X115316000Y-88392000D01*
X125476000Y-125476000D02*
X125476000Y-123952000D01*
X140208000Y-29464000D02*
X139192000Y-29464000D01*
X146812000Y-36068000D02*
X140208000Y-29464000D01*
X146812000Y-41148000D02*
X146812000Y-36068000D01*
X169164000Y-63500000D02*
X146812000Y-41148000D01*
X169164000Y-80264000D02*
X169164000Y-63500000D01*
X166624000Y-82804000D02*
X169164000Y-80264000D01*
X162560000Y-82804000D02*
X166624000Y-82804000D01*
X160020000Y-85344000D02*
X162560000Y-82804000D01*
X160020000Y-89916000D02*
X160020000Y-85344000D01*
X156972000Y-92964000D02*
X160020000Y-89916000D01*
X150368000Y-92964000D02*
X156972000Y-92964000D01*
X140716000Y-102616000D02*
X150368000Y-92964000D01*
X140716000Y-110744000D02*
X140716000Y-102616000D01*
X135636000Y-115824000D02*
X140716000Y-110744000D01*
X133604000Y-115824000D02*
X135636000Y-115824000D01*
X125476000Y-123952000D02*
X133604000Y-115824000D01*
X60960000Y-117856000D02*
X60960000Y-111760000D01*
X61468000Y-118364000D02*
X60960000Y-117856000D01*
X61468000Y-127508000D02*
X61468000Y-118364000D01*
X61976000Y-128016000D02*
X61468000Y-127508000D01*
X80772000Y-134620000D02*
X77724000Y-134620000D01*
X86360000Y-129032000D02*
X80772000Y-134620000D01*
X92964000Y-129032000D02*
X86360000Y-129032000D01*
X93980000Y-130048000D02*
X92964000Y-129032000D01*
X93980000Y-132080000D02*
X93980000Y-130048000D01*
X167640000Y-44704000D02*
X167640000Y-51308000D01*
X166116000Y-43180000D02*
X167640000Y-44704000D01*
M02*
